%!PS-Adobe-3.0 EPSF-3.0
%%Creator: cairo 1.14.8 (http://cairographics.org)
%%CreationDate: Wed May 17 19:58:23 2017
%%Pages: 1
%%DocumentData: Clean7Bit
%%LanguageLevel: 2
%%BoundingBox: 44 172 564 693
%%EndComments
%%BeginProlog
save
50 dict begin
/q { gsave } bind def
/Q { grestore } bind def
/cm { 6 array astore concat } bind def
/w { setlinewidth } bind def
/J { setlinecap } bind def
/j { setlinejoin } bind def
/M { setmiterlimit } bind def
/d { setdash } bind def
/m { moveto } bind def
/l { lineto } bind def
/c { curveto } bind def
/h { closepath } bind def
/re { exch dup neg 3 1 roll 5 3 roll moveto 0 rlineto
      0 exch rlineto 0 rlineto closepath } bind def
/S { stroke } bind def
/f { fill } bind def
/f* { eofill } bind def
/n { newpath } bind def
/W { clip } bind def
/W* { eoclip } bind def
/BT { } bind def
/ET { } bind def
/pdfmark where { pop globaldict /?pdfmark /exec load put }
    { globaldict begin /?pdfmark /pop load def /pdfmark
    /cleartomark load def end } ifelse
/BDC { mark 3 1 roll /BDC pdfmark } bind def
/EMC { mark /EMC pdfmark } bind def
/cairo_store_point { /cairo_point_y exch def /cairo_point_x exch def } def
/Tj { show currentpoint cairo_store_point } bind def
/TJ {
  {
    dup
    type /stringtype eq
    { show } { -0.001 mul 0 cairo_font_matrix dtransform rmoveto } ifelse
  } forall
  currentpoint cairo_store_point
} bind def
/cairo_selectfont { cairo_font_matrix aload pop pop pop 0 0 6 array astore
    cairo_font exch selectfont cairo_point_x cairo_point_y moveto } bind def
/Tf { pop /cairo_font exch def /cairo_font_matrix where
      { pop cairo_selectfont } if } bind def
/Td { matrix translate cairo_font_matrix matrix concatmatrix dup
      /cairo_font_matrix exch def dup 4 get exch 5 get cairo_store_point
      /cairo_font where { pop cairo_selectfont } if } bind def
/Tm { 2 copy 8 2 roll 6 array astore /cairo_font_matrix exch def
      cairo_store_point /cairo_font where { pop cairo_selectfont } if } bind def
/g { setgray } bind def
/rg { setrgbcolor } bind def
/d1 { setcachedevice } bind def
%%EndProlog
%%BeginSetup
%%EndSetup
%%Page: 1 1
%%BeginPageSetup
%%PageBoundingBox: 44 172 564 693
%%EndPageSetup
q 44 172 520 521 rectclip q
Q q
44.344 691.172 519.09 -518.961 re W n
q
44 692 520 -520 re W n
[ 1 0 0 1 0 -0.999939 ] concat
  q
0.690196 0.105882 0.176471 rg
329.309 423.852 m 329.438 423.594 329.688 423.203 329.688 422.82 c 329.688
 421.527 329.184 421.145 329.184 419.852 c 329.184 418.82 329.055 417.656
 329.562 417.402 c 331.344 419.723 331.977 421.012 334.012 422.562 c 334.012
 422.176 334.012 421.914 334.012 421.527 c 327.914 414.047 l 327.914 417.66
 328.293 420.113 329.184 422.82 c 329.309 423.852 l f*
337.953 422.043 m 338.332 422.043 338.59 422.043 338.965 422.043 c 338.84
 420.883 338.332 420.883 337.953 420.367 c 336.043 417.656 335.539 414.691
 333.121 412.758 c 333.121 412.758 332.742 413.145 332.742 413.273 c 332.742
 413.918 333.934 414.527 334.266 415.078 c 336.426 418.695 336.297 419.078
 337.949 422.047 c f*
341.891 419.98 m 342.398 418.949 l 340.875 414.949 338.59 413.016 338.078
 410.305 c 337.445 410.305 l 337.191 410.43 336.809 410.82 336.68 411.207
 c 339.098 412.629 339.48 416.496 341.512 419.59 c 341.891 419.98 l f*
323.461 400.371 m 330.324 408.367 l 330.707 407.852 l 328.293 398.559 l
 327.914 399.078 327.66 399.465 327.66 400.109 c 328.039 401.656 l 327.531
 402.43 l 326.387 402.43 l 325.117 401.789 324.734 399.852 323.465 400.367
 c h
327.402 403.207 m 328.293 403.207 l 328.293 404.758 l 327.785 404.5 327.527
 403.98 327.527 403.465 c 327.402 403.207 l f*
317.996 401.141 m 319.266 403.207 l 320.156 405.145 322.191 409.66 324.223
 409.656 c 325.367 409.656 326.258 408.238 326.258 407.078 c 326.258 405.918
 324.859 405.016 323.59 403.98 c 323.109 403.594 322.062 404.238 322.062
 404.238 c 319.773 403.465 319.395 402.562 318.504 400.625 c h
321.559 404.883 m 321.172 404.883 321.559 405.531 321.559 405.918 c 321.684
 406.562 323.844 408.238 323.844 408.238 c 324.098 408.238 324.352 408.238
 324.605 408.238 c 324.605 406.562 l 323.461 404.238 323.59 404.887 321.559
 404.887 c f*
334.27 406.562 m 329.688 397.273 l 330.836 398.047 330.707 400.109 332.102
 400.109 c 332.359 400.109 332.609 400.109 332.867 400.109 c 332.867 398.434
 l 331.977 395.855 l 332.102 395.469 332.102 395.211 331.977 394.824 c 332.359
 394.309 l 332.691 397.246 334.395 397.922 334.395 399.727 c 335.281 399.598
 335.969 401.051 336.426 402.305 c 337.316 404.758 335.539 405.918 334.27
 406.562 c h
334.773 404.238 m 334.012 403.078 333.633 402.82 332.996 401.27 c 332.996
 401.27 333.379 400.859 333.504 400.883 c 335.918 401.402 335.156 402.176
 335.156 403.98 c 334.773 404.238 l f*
352.949 412.238 m 352.188 412.629 351.422 412.754 351.172 413.27 c 353.965
 412.883 356.254 411.723 356.508 409.527 c 355.492 409.789 355.113 411.078
 354.094 411.078 c 353.715 411.078 353.582 409.965 353.207 409.527 c 351.301
 407.332 350.922 404.758 349.141 403.207 c 349.012 404.371 l 352.828 411.855
 l 352.953 412.242 l f*
359.176 408.625 m 359.562 408.492 359.688 407.723 359.688 407.332 c 359.688
 406.82 359.676 406.227 359.305 405.789 c 357.02 403.078 355.621 398.305
 354.73 398.691 c 358.926 408.5 l 359.176 408.625 l f*
344.055 401.402 m 342.656 397.016 340.492 393.531 338.84 391.336 c 339.223
 391.465 340.238 391.594 340.621 391.594 c 341.891 391.594 342.164 390.207
 343.41 390.434 c 345.574 390.82 347.734 394.691 347.734 397.785 c 347.734
 399.723 345.195 401.012 344.051 401.398 c h
345.961 398.562 m 345.832 398.82 345.453 399.207 345.07 399.207 c 344.691
 399.207 344.309 398.691 344.18 398.305 c 343.418 396.629 341.637 394.566
 341.637 392.629 c 341.637 392.371 341.637 392.113 341.637 391.855 c 342.781
 391.855 l 345.328 391.855 346.469 395.211 346.469 398.047 c 345.965 398.566
 l f*
344.688 388.629 m 347.23 391.211 349.262 393.66 351.551 396.887 c 351.805
 396.758 351.934 396.367 352.059 395.984 c 349.262 385.145 l 348.754 386.695
 l 349.262 389.273 l 349.008 390.305 348.629 390.949 347.738 391.078 c 345.199
 388.371 l 344.691 388.625 l h
350.41 392.113 m 350.41 393.66 l 349.773 393.66 l 349.773 392.113 l 350.41
 392.113 l f*
357.145 391.594 m 357.273 391.855 357.777 391.855 357.777 392.242 c 357.777
 392.887 356.879 394.422 356.254 394.305 c 354.219 393.918 353.711 392.242
 353.711 390.562 c 353.711 389.016 354.602 387.98 354.602 386.438 c 354.602
 385.016 353.582 383.207 352.695 383.207 c 351.039 383.207 351.551 385.402
 351.551 386.82 c 350.785 386.434 350.531 385.789 350.531 385.012 c 350.531
 383.078 351.828 382.391 353.457 382.691 c 354.855 382.945 355.488 385.914
 355.617 386.949 c 355.234 392.109 l 355.234 393.012 355.617 393.66 356.25
 393.66 c 357.016 393.66 357.141 391.852 357.141 391.594 c f*
369.973 361.18 m 369.973 361.57 370.254 361.895 370.605 361.891 c 370.957
 361.891 371.242 361.57 371.242 361.18 c 371.242 360.785 370.961 360.465
 370.605 360.465 c 370.254 360.465 369.973 360.785 369.973 361.18 c f
376.211 370.18 m 377.227 370.824 l 378.625 369.793 380.277 369.02 381.297
 368.5 c 382.691 368.758 l 382.691 369.148 382.945 369.406 382.945 369.793
 c 382.945 370.438 382.566 370.824 382.312 371.211 c 381.676 370.824 381.551
 369.531 380.66 369.531 c 379.645 369.531 378.82 371.156 378.496 371.602
 c 377.102 373.531 374.941 373.793 372.523 373.793 c 371.125 373.793 370.238
 372.5 369.855 371.082 c 374.305 369.664 376.211 366.438 379.898 364.891
 c 378.375 366.953 376.961 367.543 375.32 369.277 c 372.398 372.375 371.254
 370.18 370.621 372.375 c 372.652 373.016 l 374.051 373.145 376.211 372.371
 376.211 370.176 c f*
384.852 378.566 m 384.852 379.082 l 385.742 379.723 l 386.125 378.434 387.27
 377.273 388.285 375.984 c 388.523 375.684 385.996 373.664 385.617 372.887
 c 383.836 374.566 380.789 377.918 378.371 379.078 c 377.098 379.723 376.594
 379.852 375.957 380.883 c 376.973 380.883 l 382.691 379.598 382.566 376.496
 385.488 374.305 c 385.996 374.82 386.508 374.949 386.633 375.594 c 385.234
 378.172 l 384.855 378.562 l f*
384.598 387.34 m 385.109 389.145 386.762 390.176 388.156 390.562 c 389.508
 390.938 390.441 387.207 391.082 386.953 c 391.715 386.695 392.605 386.953
 392.605 386.305 c 392.605 385.273 391.336 385.016 390.441 385.016 c 390.062
 385.016 389.871 385.645 389.809 386.047 c 389.43 388.5 388.668 389.402 
387.016 389.402 c 386.25 389.402 386.25 388.109 386.25 387.594 c 386.25 
386.176 388.031 385.406 388.668 384.758 c 390.191 383.207 391.078 380.629
 391.461 378.309 c 389.43 381.531 388.156 384.629 384.977 386.949 c 384.594
 387.34 l f*
406.332 394.691 m 406.332 395.078 406.461 395.465 406.715 395.723 c 408.242
 395.207 l 411.289 396.496 l 412.434 394.949 413.324 393.789 413.324 391.855
 c 412.688 388.238 l 412.816 387.078 413.707 385.27 413.836 384.629 c 412.82
 384.238 l 411.297 385.016 411.297 386.438 411.297 387.98 c 411.801 391.078
 l 412.059 393.789 l 410.66 395.465 l 408.629 394.82 408.246 394.305 408.246
 392.887 c 409.008 387.727 l 408.246 384.629 l 406.719 385.145 407.863 386.953
 407.48 388.762 c 406.469 394.434 l 406.336 394.691 l f*
422.094 392.758 m 423.363 392.758 l 423.363 393.789 l 422.98 394.953 422.281
 396.504 421.203 396.113 c 419.426 395.469 418.531 393.273 418.531 391.34
 c 418.531 389.789 421.586 390.051 421.078 387.855 c 420.816 386.727 420.059
 385.02 419.426 385.02 c 418.664 385.02 418.918 386.566 418.531 386.953 
c 418.41 386.824 417.773 386.18 417.773 385.922 c 417.773 384.758 418.531
 383.727 419.043 383.727 c 420.57 383.727 422.477 387.727 422.477 389.406
 c 422.477 391.211 419.555 391.078 419.93 393.273 c 420.023 393.785 420.441
 395.078 421.078 395.078 c 421.84 395.078 422.352 393.918 422.223 393.145
 c 422.098 392.758 l f*
398.07 393.918 m 396.289 393.402 396.035 391.211 396.035 389.406 c 396.035
 386.953 398.832 382.695 400.359 382.695 c 400.484 382.695 400.738 383.082
 400.738 383.211 c 400.738 384.113 399.594 384.5 399.344 385.145 c 398.328
 387.211 397.562 388.629 397.562 391.34 c 397.562 392.371 397.562 392.758
 397.562 393.402 c 398.07 393.918 l f*
399.598 394.566 m 402.52 393.145 403.41 390.438 403.789 386.82 c 403.992
 384.898 403.41 384.113 402.773 383.211 c 402.266 384.242 402.902 385.664
 402.391 387.855 c 401.719 390.766 400.613 392.371 399.598 394.566 c f*
428.516 390.594 m 426.777 388.895 425.25 384.109 426.23 382.926 c 426.312
 382.824 426.828 381.969 426.926 382.047 c 427.609 382.629 427.105 384.68
 427.426 385.289 c 428.332 387.406 428.312 388.824 430.355 390.562 c 431.137
 391.23 432.031 391.828 432.516 392.242 c 432.516 392.242 431.246 393.273
 428.516 390.598 c f*
434.699 391.145 m 435.508 387.961 433.406 384.629 431.371 382.309 c 428.625
 379.168 429.793 381.621 428.707 381.535 c 429.156 382.594 431.504 383.418
 432.266 385.531 c 433.277 388.375 433.535 391.855 434.699 391.148 c f*
437.57 380.266 m 437.57 380.551 437.855 380.781 438.207 380.781 c 438.555
 380.781 438.84 380.551 438.84 380.266 c 438.84 379.98 438.555 379.75 438.207
 379.75 c 437.855 379.75 437.57 379.98 437.57 380.266 c f
364.516 354.957 m 366.039 355.473 l 373.156 354.699 l 375.191 355.473 l
 375.824 354.441 l 374.934 353.539 373.895 352.73 372.266 353.02 c 370.105
 353.406 368.961 354.312 366.801 354.312 c 366.039 354.312 365.277 354.055
 364.77 353.668 c 364.387 354.699 l 364.512 354.957 l f*
365.152 351.215 m 370.238 351.215 l 372.141 350.957 375.957 350.699 374.812
 349.152 c 369.219 349.668 l 365.152 349.281 l 365.152 350.312 365.027 350.441
 365.152 351.215 c f*
365.914 345.277 m 366.676 345.664 367.184 345.539 367.949 345.664 c 371
 345.664 l 372.523 345.152 373.414 344.508 374.938 344.508 c 374.938 343.09
 l 374.047 343.09 l 371.633 343.859 369.852 344.633 366.93 343.859 c 366.438
 343.73 366.039 344.379 365.914 344.895 c 365.914 345.281 l f*
366.93 340.504 m 371.379 340.504 l 375.445 342.57 l 376.465 341.023 372.27
 338.961 370.363 338.699 c 366.93 338.699 l 366.805 339.605 366.805 339.734
 366.93 340.508 c f*
367.184 334.832 m 370.109 336.375 371.762 336.637 374.559 336.637 c 376.336
 336.637 378.242 334.445 378.242 333.41 c 378.242 332.766 376.719 331.734
 375.195 330.57 c 373.469 329.258 369.852 329.414 368.582 328.508 c 367.75
 327.914 367.184 332.637 367.184 334.055 c 367.184 334.312 366.961 334.711
 367.184 334.832 c h
374.684 334.961 m 374.301 334.961 374.047 334.961 373.668 334.961 c 371
 334.961 367.949 334.441 367.949 331.602 c 367.949 331.348 367.949 331.09
 367.949 330.832 c 370.617 330.832 l 373.285 331.219 375.699 332.25 375.32
 334.699 c 374.684 334.961 l f*
442.305 372.762 m 442.305 373.148 441.918 373.793 441.543 373.793 c 440.781
 373.793 440.27 372.375 440.27 371.34 c 440.27 370.438 441.688 369.332 442.812
 369.531 c 444.977 369.922 446.246 371.34 446.5 373.273 c 445.992 375.34
 l 446.371 376.758 449.422 378.047 449.422 377.273 c 449.422 376.633 448.66
 375.211 449.547 375.211 c 450.441 375.211 450.945 376.242 450.945 377.016
 c 450.945 377.531 450.051 378.742 449.801 378.691 c 447.898 378.309 444.082
 376.629 444.082 374.695 c 444.59 372.629 l 443.953 371.34 443.699 370.957
 442.68 370.438 c 441.156 370.438 l 441.156 371.211 l 441.414 371.855 441.793
 372.242 441.918 372.629 c 442.305 372.762 l f*
445.609 362.57 m 448.148 363.859 453.234 364.758 453.867 367.727 c 453.234
 368.758 l 453.492 368.891 453.867 369.148 454.254 369.148 c 455.266 369.148
 454.508 366.438 456.922 367.082 c 456.922 366.438 457.938 366.18 456.922
 365.277 c 453.617 365.277 l 452.348 363.984 448.023 361.664 445.613 362.57
 c f*
453.996 353.277 m 452.855 352.762 452.219 351.73 451.074 351.73 c 450.816
 351.73 449.422 352.633 449.422 352.891 c 449.422 355.215 455.266 355.855
 457.43 355.855 c 458.316 355.855 459.336 354.699 459.461 354.312 c 459.082
 353.281 l 459.844 352.762 460.098 354.312 460.352 355.215 c 458.699 355.992
 457.938 356.891 456.285 356.891 c 453.867 356.891 448.223 355.336 448.406
 353.281 c 448.531 351.859 451.199 351.086 453.105 351.086 c 454.125 351.086
 455.395 351.348 455.652 351.473 c 455.141 352.375 455.016 352.766 454.254
 353.148 c 453.996 353.281 l f*
449.164 344.375 m 450.695 344.375 451.711 343.605 452.73 343.473 c 455.27
 342.957 457.938 343.344 460.355 343.344 c 460.355 340.766 459.211 339.215
 460.355 337.668 c 459.086 337.281 457.938 336.25 457.051 336.508 c 454.82
 337.156 453.488 338.652 450.949 338.832 c 449.66 338.922 447.645 338.574
 447.645 338.574 c 447.387 338.699 l 446.883 338.699 447.387 339.605 447.387
 340.117 c 449.805 340.641 l 452.348 340.641 454.379 337.668 457.43 337.668
 c 458.32 337.668 458.957 338.441 459.086 339.344 c 458.699 341.41 l 455.141
 341.41 451.711 343.086 449.551 344.121 c 449.168 344.375 l f*
446.246 333.41 m 446.246 333.41 450.793 334.684 452.73 333.023 c 454.379
 331.602 456.543 330.957 457.051 327.477 c 454.508 328.246 455.398 330.57
 451.836 331.988 c 449.797 332.805 448.152 332.504 446.625 332.504 c 446.246
 333.406 l f*
446.246 330.699 m 445.988 330.832 445.48 330.957 445.102 331.09 c 446.75
 328.121 450.438 325.281 453.996 325.281 c 454.629 325.281 455.266 325.41
 455.652 326.055 c 454.379 326.703 453.359 326.312 452.094 326.828 c 449.164
 327.992 448.91 328.379 446.754 329.926 c 446.246 330.699 l f*
444.152 321.43 m 444.152 321.82 444.434 322.137 444.789 322.137 c 445.137
 322.137 445.422 321.82 445.422 321.43 c 445.422 321.039 445.141 320.715
 444.789 320.719 c 444.438 320.719 444.152 321.039 444.152 321.43 c f
442.941 312.895 m 443.191 312.895 443.961 315.668 444.977 315.09 c 445.559
 314.758 445.738 313.543 445.738 313.543 c 445.102 312.125 443.957 312.125
 442.812 312.125 c 441.16 312.125 442.18 309.801 440.781 309.801 c 441.285
 312.508 438.746 317.543 434.805 318.188 c 434.172 317.156 l 434.422 315.609
 435.188 313.801 435.566 313.027 c 436.332 311.48 437.223 311.738 438.109
 310.832 c 438.367 310.578 438.621 309.801 438.234 309.801 c 435.441 309.801
 433.281 315.094 432.773 317.672 c 432.523 318.938 433.789 319.863 434.809
 319.863 c 436.969 319.863 439.004 317.543 440.145 316.383 c 441.293 315.219
 441.293 312.898 442.941 312.898 c f*
423.113 312.383 m 426.16 313.156 l 425.523 312.25 424.637 311.48 423.492
 311.477 c 423.363 311.477 423.113 311.992 423.113 311.992 c 423.113 312.383
 l f*
427.43 308.254 m 427.172 308.254 426.797 307.863 426.797 307.609 c 426.797
 307.352 427.305 307.09 427.559 306.961 c 429.594 307.734 l 428.957 308.383
 428.07 308.25 427.43 308.25 c f*
427.812 300.898 m 427.812 302.449 l 429.336 302.449 429.336 302.059 430.605
 302.059 c 431.117 302.059 431.879 302.961 431.879 303.992 c 431.879 307.223
 430.734 308.895 429.844 310.703 c 429.082 312.25 427.43 312.383 427.43 
313.93 c 427.43 314.316 428.32 314.188 428.574 313.93 c 430.102 312.383 
430.859 311.48 431.879 309.414 c 432.387 308.258 432.895 305.805 432.895
 304.254 c 432.895 301.93 430.48 301.285 427.809 300.898 c f*
413.832 306.707 m 414.086 307.352 414.34 307.609 414.465 308.254 c 414.082
 310.316 l 414.34 312.125 416.754 311.219 418.531 311.738 c 418.531 307.609
 l 419.043 304.379 419.93 301.93 420.82 299.348 c 420.695 299.348 420.312
 299.348 420.188 299.348 c 418.918 299.348 418.871 300.367 418.789 300.77
 c 418.027 304.379 417.262 307.09 416.883 310.574 c 416.246 310.574 l 414.594
 309.801 416.629 307.09 414.34 306.574 c 413.832 306.703 l f*
406.836 305.09 m 406.836 305.48 407.18 305.797 407.598 305.797 c 408.02
 305.797 408.359 305.48 408.359 305.09 c 408.359 304.699 408.023 304.379
 407.602 304.379 c 407.18 304.379 406.836 304.699 406.836 305.09 c f
403.789 312.125 m 401.758 309.285 399.852 306.445 399.852 302.316 c 400.359
 299.996 l 401.379 301.285 401.688 303.906 402.391 306.445 c 403.004 308.641
 404.555 310.445 403.789 312.125 c f*
399.723 313.281 m 399.469 313.926 398.961 314.055 398.453 314.188 c 398.582
 312.383 397.941 309.801 397.941 309.543 c 397.941 309.152 398.707 309.93
 398.832 310.316 c 399.215 311.09 399.723 311.605 399.723 312.895 c 399.723
 313.281 l f*
398.707 308.641 m 396.93 307.352 395.273 305.547 395.273 302.836 c 395.273
 301.543 397.438 300.77 398.199 300.77 c 398.199 300.77 396.824 302.871 
396.805 304.379 c 396.777 306.199 398.199 307.609 398.707 308.637 c f*
388.156 306.707 m 386.633 306.316 l 385.621 306.832 385.621 307.992 385.488
 309.027 c 384.98 309.027 383.566 309.621 383.836 309.027 c 385.234 305.93
 386.633 305.672 388.793 305.672 c 389.684 305.672 390.066 306.188 390.191
 306.441 c 391.973 308.895 395.148 311.605 395.148 315.086 c 395.148 316.062
 394.641 316.895 393.113 317.152 c 392.102 317.281 389.941 319.605 389.812
 318.828 c 390.32 317.797 390.828 317.152 391.844 316.637 c 392.355 316.379
 393.625 316.25 393.625 315.73 c 393.625 314.184 392.48 310.832 391.34 310.312
 c 391.207 310.703 389.43 314.184 388.539 312.766 c 387.855 311.68 390.574
 310.832 391.082 310.445 c 390.316 308.895 389.684 307.863 388.539 307.09
 c 388.156 306.703 l f*
373.16 317.156 m 374.684 317.156 l 376.719 317.156 378.879 318.445 380.277
 319.09 c 380.66 317.543 l 380.277 316.125 378.371 315.996 378.754 314.062
 c 378.824 313.68 379.262 313.289 379.516 313.156 c 379.898 315.48 381.043
 315.352 381.551 318.32 c 381.043 319.863 l 381.93 321.41 383.199 321.93
 384.727 321.93 c 385.996 321.93 386.125 320.77 386.379 319.605 c 387.27
 321.023 l 386.508 322.059 385.746 322.832 384.473 322.832 c 382.312 322.832
 380.402 320.418 379.008 319.605 c 377.23 318.574 373.16 318.961 373.16 
317.156 c f*
308.594 501.516 m 308.594 504.098 306.305 504.484 304.27 504.484 c 303.254
 504.484 301.73 503.836 301.73 502.809 c 301.73 500.875 304.906 499.453 
306.305 499.453 c 307.195 499.453 308.465 500.875 308.465 501 c h
304.27 501.262 m 304.016 501.773 303.891 502.422 303.379 502.422 c 303.125
 502.422 302.871 501.906 302.871 501.648 c 302.871 501.262 303.637 501.133
 304.016 501.133 c h
307.066 501 m 307.066 501 306.684 501.387 306.559 501.387 c 306.051 501.387
 305.793 500.742 305.539 500.23 c 306.559 500.23 l 306.938 500.742 l 307.066
 501 l f*
308.594 492.227 m 308.973 493.258 310.754 493.387 311.008 493.902 c 311.387
 494.809 311.133 495.582 311.262 496.484 c 311.895 500.875 312.277 503.191
 316.473 503.191 c 318.25 503.191 320.027 502.031 320.027 500.227 c 320.027
 498.293 318.375 497.773 316.852 497.773 c 313.805 499.062 l 312.277 497.129
 313.418 490.934 310.5 491.066 c 308.973 491.453 l h
315.84 499.707 m 315.707 500.23 315.453 501 314.949 501 c 314.566 501 314.312
 500.484 314.184 500.098 c 314.691 499.707 315.203 499.707 315.84 499.707
 c h
318.633 499.324 m 318.504 499.582 318.125 499.84 317.742 499.84 c 317.488
 499.84 317.105 498.938 317.363 498.938 c 317.742 498.938 318.375 499.195
 318.633 499.324 c f*
306.301 488.098 m 308.336 487.453 310.496 488.742 311.387 486.938 c 311.008
 485.906 l 309.48 486.164 306.812 486.551 306.426 487.328 c 306.301 488.098
 l f*
308.336 485.004 m 307.32 485.004 l 307.32 484.227 l 307.449 484.098 307.957
 483.84 308.211 483.84 c 308.336 483.84 308.211 484.227 308.211 484.355 
c 308.336 485.004 l f*
0.690196 0.105882 0.180392 rg
1.383519 w
1 J
1 j
[] 0.0 d
3.8637 M q 1 0 0 1 0 843 cm
380.648 -495.426 m 380.633 -478.625 394.379 -465.02 411.348 -465.031 c 
428.32 -465.047 442.086 -478.672 442.102 -495.469 c 442.113 -512.266 428.371
 -525.871 411.398 -525.863 c 394.43 -525.848 380.664 -512.223 380.648 -495.426
 c h
380.648 -495.426 m S Q
q 1 0 0 1 0 843 cm
245.168 -363.156 m 263.473 -255.305 307.238 -239.719 308.637 -230.559 c
 308.637 -230.559 352.445 -269.238 367.848 -363.543 c S Q
q 1 0 0 1 0 843 cm
240.082 -360.062 m 259.91 -257.879 303.637 -230.531 308.637 -224.367 c 
308.637 -224.367 358.543 -266.141 372.27 -361.68 c S Q
q 1 0 0 1 0 843 cm
145.516 -363.156 m 154.16 -328.062 169.922 -293.488 192.293 -270.27 c 192.293
 -270.27 218.035 -282.523 236.523 -362.715 c S Q
q 1 0 0 1 0 843 cm
141.449 -362.125 m 150.602 -319.809 169.922 -286.781 192.293 -263.559 c
 192.293 -263.559 225.848 -287.297 240.59 -361.094 c S Q
q 1 0 0 1 0 843 cm
223.879 -364.258 m 263.977 -364.258 l 263.977 -364.258 266.773 -364.449
 266.773 -368.059 c 266.773 -369.637 264.555 -371.41 264.555 -371.41 c 223.305
 -371.41 l 223.305 -371.41 221.555 -369.395 221.27 -367.801 c 220.762 -364.961
 223.879 -364.258 223.879 -364.258 c h
223.879 -364.258 m S Q
q 1 0 0 1 0 843 cm
240.844 -371.672 m 239.574 -394.637 l S Q
q 1 0 0 1 0 843 cm
240.34 -384.055 m 241.988 -378.77 246.82 -372.637 254.574 -372.637 c 259.277
 -372.637 261.98 -375.121 261.438 -379.344 c 260.93 -383.281 259.473 -384.508
 256.164 -384.508 c 254.516 -384.508 252.863 -383.34 252.863 -381.668 c 
252.863 -379.859 253.559 -379.414 254.062 -378.641 c S Q
q 1 0 0 1 0 843 cm
224.066 -375.801 m 224.957 -373.477 226.609 -372.445 229.152 -372.445 c
 234.488 -372.445 238.305 -377.605 239.32 -381.992 c S Q
q 1 0 0 1 0 843 cm
238.305 -391.281 m 238.559 -390.121 238.578 -388.184 238.047 -387.152 c
 234.746 -380.703 230.93 -384.574 230.422 -382.766 c 229.953 -381.094 229.66
 -378.379 229.66 -378.379 c 229.66 -379.152 230.676 -379.152 230.676 -379.926
 c S Q
q 1 0 0 1 0 843 cm
234.996 -398.25 m 234.996 -395.152 235.125 -391.797 237.793 -391.797 c 
239.316 -391.797 239.066 -393.09 239.066 -394.379 c 239.066 -397.602 237.793
 -399.156 237.285 -401.605 c S Q
q 1 0 0 1 0 843 cm
239.066 -396.188 m 239.828 -394.508 240.078 -395.152 241.605 -393.344 c
 243.387 -393.602 l 243.387 -394.508 243.641 -395.023 243.641 -395.926 c
 243.641 -397.863 242.113 -401.09 241.605 -403.152 c S Q
q 1 0 0 1 0 843 cm
243.387 -398.25 m 245.422 -397.477 l 245.93 -398.637 245.93 -399.41 245.422
 -400.574 c S Q
q 1 0 0 1 0 843 cm
240.336 -393.09 m 242.367 -387.926 247.199 -384.316 253.047 -384.316 c 
254.949 -384.316 255.332 -386.379 255.332 -387.926 c 255.332 -390.379 253.809
 -390.766 251.777 -390.766 c 251.012 -390.766 251.141 -389.473 251.012 -388.699
 c 249.105 -389.602 248.086 -391.152 247.961 -393.086 c 249.742 -397.219
 l 248.852 -399.152 246.816 -400.055 246.184 -401.859 c 246.184 -405.344
 247.453 -405.734 246.945 -408.312 c 249.742 -418.633 l 245.039 -417.469
 242.238 -412.824 239.57 -410.117 c 234.871 -405.344 229.023 -396.957 227.371
 -390.246 c 229.406 -391.023 l S Q
q 1 0 0 1 0 843 cm
228.391 -392.828 m 228.391 -396.57 226.465 -394.852 227.625 -397.992 c 
229.148 -402.121 230.293 -400.055 232.457 -401.09 c S Q
q 1 0 0 1 0 843 cm
247.453 -408.828 m 248.344 -407.539 249.613 -406.766 251.266 -406.766 c
 257.367 -406.766 261.055 -414.117 262.961 -420.699 c 264.102 -424.828 264.738
 -427.922 266.262 -431.02 c S Q
q 1 0 0 1 0 843 cm
258.637 -410.637 m 260.035 -411.281 262.984 -410.879 263.723 -410.379 c
 270.586 -405.734 269.57 -394.895 273.891 -388.445 c 277.496 -383.062 285.84
 -372.191 289.145 -371.676 c 292.703 -370.516 292.578 -367.676 296.516 -367.285
 c S Q
q 1 0 0 1 0 843 cm
263.469 -410.637 m 266.52 -411.152 269.062 -414.508 270.332 -416.312 c 
274.145 -421.602 275.926 -427.406 280.5 -429.73 c S Q
q 1 0 0 1 0 843 cm
275.672 -441.34 m 281.77 -437.469 286.602 -398.508 290.418 -371.672 c S Q
q 1 0 0 1 0 843 cm
275.926 -442.629 m 277.07 -443.402 278.465 -443.922 279.996 -443.922 c 
286.223 -443.922 289.652 -426.633 291.43 -417.605 c 293.605 -406.582 297.785
 -374.512 296.516 -368.578 c S Q
q 1 0 0 1 0 843 cm
296.516 -377.09 m 298.551 -378.637 300.328 -378.898 302.617 -379.672 c 
307.699 -379.672 l 309.734 -379.156 311.516 -378.508 312.785 -377.605 c S Q
q 1 0 0 1 0 843 cm
295.75 -386.898 m 297.785 -387.41 301.133 -388.629 304.652 -388.445 c 308.039
 -388.266 311.516 -386.898 313.039 -386.125 c S Q
q 1 0 0 1 0 843 cm
298.297 -388.441 m 299.949 -397.086 302.109 -402.375 304.398 -409.344 c
 S Q
q 1 0 0 1 0 843 cm
313.805 -386.121 m 313.805 -388.828 313.293 -390.766 312.785 -392.312 c
 311.008 -396.828 308.211 -405.734 305.16 -409.859 c S Q
q 1 0 0 1 0 843 cm
300.836 -419.406 m 300.074 -418.375 299.566 -417.086 299.566 -415.793 c
 299.566 -411.926 303.125 -410.891 304.652 -410.891 c 307.32 -410.891 309.227
 -412.312 309.227 -414.504 c 309.227 -417.859 307.957 -418.891 306.684 -420.699
 c 307.449 -419.023 308.848 -419.148 310.242 -419.148 c 313.547 -419.148
 314.566 -420.957 314.566 -423.797 c 314.566 -426.762 312.785 -427.922 310.75
 -428.184 c 308.73 -428.438 307.504 -428.438 306.613 -427.148 c 307.121 
-428.309 307.633 -429.086 307.633 -430.246 c 307.633 -434.113 307.445 -436.176
 302.867 -435.664 c 299.586 -435.289 298.805 -433.473 298.805 -430.504 c
 298.805 -428.57 299.438 -427.406 300.582 -426.633 c 299.566 -427.406 298.75
 -428.285 297.531 -427.922 c 293.211 -426.633 293.211 -425.344 293.211 -421.984
 c 293.211 -418.891 296.258 -418.637 297.785 -417.859 c h
300.836 -419.406 m S Q
q 1 0 0 1 0 843 cm
312.277 -365.48 m 313.551 -375.801 l 314.059 -383.797 l 314.059 -383.797
 316.602 -409.602 317.109 -425.34 c 317.191 -427.918 318.375 -432.051 318.375
 -432.051 c S Q
q 1 0 0 1 0 843 cm
312.531 -367.285 m 318.375 -365.219 319.141 -378.637 321.172 -392.059 c
 321.426 -393.723 322.035 -396.949 322.191 -398.77 c 322.953 -407.539 322.316
 -411.539 325.492 -418.121 c S Q
q 1 0 0 1 0 843 cm
317.109 -370.383 m 320.16 -371.934 322.309 -371.543 324.734 -372.965 c 
327.363 -374.5 327.785 -377.863 332.613 -380.703 c 334.02 -381.531 336.043
 -387.672 336.68 -388.961 c 339.855 -395.41 342.273 -403.41 343.289 -411.926
 c S Q
q 1 0 0 1 0 843 cm
361.848 -421.988 m 369.98 -430.762 l 354.73 -466.109 l 352.312 -465.594
 350.66 -464.492 348.121 -462.688 c 346.348 -461.426 345.832 -458.887 341.004
 -456.562 c 338.633 -455.426 335.156 -455.531 332.359 -455.793 c 330.586
 -455.957 331.344 -454.113 330.324 -452.695 c 329.184 -451.145 322.445 -448.18
 319.906 -447.793 c 315.453 -447.145 314.695 -447.922 311.77 -445.727 c 
315.078 -438.887 331.855 -408.059 332.109 -408.312 c 334.648 -410.891 339.988
 -410.637 344.309 -412.699 c S Q
q 1 0 0 1 0 843 cm
351.172 -409.09 m 350.918 -408.957 350.535 -408.312 350.156 -408.312 c 
346.34 -408.312 344.562 -415.02 344.562 -419.148 c 344.562 -421.73 345.453
 -423.02 346.34 -424.312 c S Q
q 1 0 0 1 0 843 cm
355.492 -409.859 m 354.73 -409.473 353.969 -408.312 353.203 -408.312 c 
351.934 -408.312 351.297 -410.379 350.918 -411.152 c 349.262 -414.508 347.355
 -420.957 347.355 -424.828 c 347.355 -426.117 348.371 -427.148 349.641 -427.148
 c 350.027 -427.148 350.277 -427.148 350.656 -427.148 c S Q
q 1 0 0 1 0 843 cm
359.305 -412.957 m 358.672 -411.41 357.906 -409.602 356.254 -409.602 c 
355.109 -409.602 354.855 -411.797 354.73 -412.445 c 353.582 -417.473 351.68
 -420.055 351.68 -425.859 c 351.68 -426.762 352.188 -427.664 352.949 -427.664
 c 353.84 -427.664 354.094 -427.277 354.477 -426.379 c S Q
q 1 0 0 1 0 843 cm
361.594 -417.086 m 360.957 -415.02 360.828 -414.117 359.555 -413.215 c 
357.273 -416.312 356.508 -420.441 355.492 -424.566 c 355.492 -426.633 l 
356.762 -426.633 l 359.305 -425.344 359.051 -424.312 360.832 -418.637 c S Q
q 1 0 0 1 0 843 cm
360.832 -422.508 m 362.352 -418.375 l S Q
q 1 0 0 1 0 843 cm
363.121 -402.895 m 363.121 -422.508 l S Q
q 1 0 0 1 0 843 cm
376.594 -402.379 m 376.594 -453.211 l S Q
q 1 0 0 1 0 843 cm
314.312 -447.273 m 319.773 -448.18 325.75 -454.371 330.07 -456.562 c 336.172
 -459.66 340.363 -459.016 346.852 -462.242 c S Q
q 1 0 0 1 0 843 cm
360.574 -452.695 m 362.098 -453.469 363.988 -455.191 363.121 -457.34 c 
361.34 -461.727 360.703 -463.402 357.781 -463.016 c S Q
q 1 0 0 1 0 843 cm
244.656 -415.793 m 244.656 -436.438 l 245.801 -436.438 246.562 -436.438
 247.707 -436.438 c 254.949 -436.438 259.527 -447.402 262.453 -451.402 c
 266.898 -457.469 270.332 -456.305 278.211 -458.629 c 281.895 -459.66 282.785
 -461.852 285.84 -463.785 c 292.703 -468.047 301.855 -469.469 312.273 -469.469
 c 324.984 -469.469 333.117 -457.594 340.75 -461.723 c S Q
q 1 0 0 1 0 843 cm
286.855 -465.336 m 290.285 -469.98 291.559 -479.27 299.566 -479.27 c 308.211
 -479.27 309.227 -473.078 315.324 -469.98 c S Q
q 1 0 0 1 0 843 cm
290.414 -472.043 m 293.465 -477.203 297.66 -486.363 299.059 -492.168 c 
302.613 -506.621 310.75 -529.328 328.547 -527.781 c 329.434 -527.703 329.688
 -526.359 330.066 -525.715 c S Q
q 1 0 0 1 0 843 cm
298.547 -488.559 m 302.613 -488.559 l 309.098 -487.527 310.75 -480.816 
313.801 -477.207 c 317.613 -472.562 320.281 -469.852 324.988 -466.367 c S Q
q 1 0 0 1 0 843 cm
302.105 -499.395 m 303.633 -499.527 304.652 -499.395 306.176 -499.395 c
 308.969 -499.395 311.836 -494.223 312.273 -493.203 c 319.395 -476.691 322.316
 -473.594 329.562 -463.785 c S Q
q 1 0 0 1 0 843 cm
335.156 -461.723 m 324.988 -466.887 324.094 -475.398 320.922 -486.492 c
 318.633 -494.234 313.293 -505.461 308.715 -511.781 c S Q
q 1 0 0 1 0 843 cm
344.309 -461.723 m 347.992 -463.531 349.391 -466.496 350.41 -471.012 c 
348.375 -485.465 l 339.734 -503.527 336.934 -504.559 328.547 -515.91 c 334.645
 -515.91 347.355 -513.328 348.883 -525.195 c 349.176 -527.5 343.797 -530.875
 340.746 -530.875 c 335.281 -530.875 333.883 -527.645 330.578 -525.195 c
 S Q
q 1 0 0 1 0 843 cm
274.145 -457.594 m 264.23 -457.594 260.418 -463.918 260.418 -473.594 c 
260.418 -484.172 266.645 -486.109 272.109 -491.652 c 281.645 -501.328 294.734
 -509.59 298.039 -524.168 c 294.102 -522.234 291.305 -519.004 284.316 -519.004
 c 277.195 -519.004 274.652 -522.363 273.129 -527.262 c 273.129 -527.262
 273.07 -531.52 274.906 -532.941 c 276.867 -534.453 281.262 -532.941 281.262
 -532.941 c 281.262 -529.844 l 280.117 -527.391 278.719 -525.715 276.688
 -524.168 c S Q
q 1 0 0 1 0 843 cm
281.77 -529.844 m 283.297 -529.973 284.316 -529.844 285.84 -529.844 c 288.508
 -529.844 289.523 -528.293 291.941 -528.293 c 294.863 -528.293 295.5 -531.648
 298.039 -532.941 c 301.344 -534.617 304.652 -536.035 310.242 -536.035 c
 313.336 -536.035 321.809 -532.809 323.465 -529.328 c S Q
q 1 0 0 1 0 843 cm
281.262 -531.391 m 281.391 -532.941 281.262 -533.973 281.262 -535.52 c 
281.262 -536.035 275.414 -543 275.414 -543 c 272.109 -546.355 271.477 -547.906
 271.855 -552.805 c 268.297 -549.965 265.625 -556.289 262.961 -558.227 c
 263.852 -559.52 261.43 -561.32 266.012 -560.289 c 269.957 -559.398 268.645
 -560.52 271.348 -559 c 275.414 -562.871 281.758 -553.348 284.566 -549.969
 c 287.746 -546.098 293.719 -544.551 293.719 -537.582 c 293.719 -537.582
 289.648 -534.23 288.891 -530.875 c 288.719 -530.121 289.016 -529.586 288.891
 -528.812 c S Q
q 1 0 0 1 0 843 cm
315.324 -534.488 m 314.18 -537.328 316.09 -537.328 313.039 -540.938 c 312.293
 -541.82 314.309 -543.391 314.309 -544.551 c 323.715 -546.355 321.555 -554.871
 331.594 -558.227 c 341.254 -557.969 l 332.609 -541.715 324.477 -543.258
 325.238 -534.23 c 326.508 -528.293 l S Q
q 1 0 0 1 0 843 cm
327.527 -540.684 m 328.801 -541.586 329.941 -542.746 331.598 -542.746 c
 335.406 -542.746 337.188 -539.648 341.762 -539.648 c 345.195 -539.648 346.086
 -544.426 346.848 -546.875 c S Q
q 1 0 0 1 0 843 cm
341.258 -557.711 m 344.055 -554.617 341.891 -547.52 342.781 -541.715 c S Q
q 1 0 0 1 0 843 cm
349.898 -477.207 m 350.281 -479.527 349.898 -481.078 349.898 -483.402 c
 349.898 -491.012 348.629 -505.977 347.355 -514.363 c 347.355 -518.492 l
 S Q
q 1 0 0 1 0 843 cm
346.34 -529.328 m 346.723 -534.746 345.832 -540.812 346.34 -547.391 c 347.992
 -545.715 349.645 -542.746 352.949 -542.746 c 356.762 -542.746 352.824 -545.844
 357.016 -545.844 c 362.992 -545.844 365.281 -540.039 371.25 -539.133 c 
370.871 -533.586 361.527 -467.789 360.508 -463.273 c S Q
q 1 0 0 1 0 843 cm
354.477 -466.367 m 352.949 -495.27 l 352.949 -530.359 l S Q
q 1 0 0 1 0 843 cm
356 -465.34 m 356 -502.496 l 360.066 -510.879 357.145 -525.457 361.082 
-533.457 c S Q
q 1 0 0 1 0 843 cm
357.527 -464.305 m 359.555 -482.883 l 360.711 -499.391 l 365.148 -528.293
 l S Q
q 1 0 0 1 0 843 cm
346.848 -547.906 m 348.754 -550.488 345.324 -553.066 348.883 -553.586 c
 357.016 -553.586 l 356.891 -550.617 356.891 -549.453 357.016 -547.391 c
 S Q
q 1 0 0 1 0 843 cm
261.434 -463.785 m 260.418 -461.723 259.348 -458.613 256.859 -459.145 c
 247.199 -461.207 250.25 -480.305 246.691 -498.879 c 244.312 -511.301 241.477
 -532.035 236.52 -542.227 c 237.281 -540.676 238.934 -539.648 241.602 -539.648
 c 245.164 -539.648 247.453 -543.258 251.773 -543.258 c 254.062 -543.258
 256.473 -539.133 259.398 -539.133 c 264.102 -539.133 264.227 -543.258 267.535
 -543.258 c 270.836 -543.258 272.363 -540.68 275.668 -540.164 c S Q
q 1 0 0 1 0 843 cm
248.215 -528.812 m 248.215 -524.68 l 249.742 -512.293 l 249.742 -497.848
 l 250.629 -492.168 251.266 -487.137 251.266 -479.27 c 250.754 -463.785 
l 252.918 -468.301 253.805 -479.656 254.824 -486.492 c 254.824 -531.387 
l S Q
q 1 0 0 1 0 843 cm
261.434 -480.816 m 261.434 -480.816 260.941 -493.781 261.941 -501.977 c
 262.691 -508.086 264.359 -512.297 264.992 -517.457 c 266.516 -529.844 266.516
 -540.035 266.516 -552.551 c S Q
q 1 0 0 1 0 843 cm
250.754 -543.777 m 251.391 -548.293 249.359 -553.582 253.805 -553.582 c
 255.586 -553.582 259.145 -554.098 260.926 -554.098 c 260.926 -548.68 260.543
 -545.969 260.926 -541.195 c S Q
q 1 0 0 1 0 843 cm
234.488 -536.48 m 234.488 -552.551 l S Q
q 1 0 0 1 0 843 cm
179.582 -553.512 m 194.578 -553.512 203.223 -554.16 218.219 -553.512 c 
222.031 -553.383 237.031 -553.512 246.184 -553.512 c 246.184 -542.742 l S Q
q 1 0 0 1 0 843 cm
143.812 -495.504 m 143.789 -466.797 166.699 -443.543 194.977 -443.562 c
 223.262 -443.586 246.207 -466.871 246.23 -495.582 c 246.254 -524.289 223.348
 -547.543 195.062 -547.52 c 166.781 -547.5 143.836 -524.215 143.812 -495.504
 c h
143.812 -495.504 m S Q
q 1 0 0 1 0 843 cm
242.113 -525.199 m 232.566 -541.805 215.918 -551.426 195.609 -551.426 c
 165.191 -551.426 140.539 -526.398 140.539 -495.523 c 140.539 -464.656 165.191
 -439.629 195.609 -439.629 c 222.438 -439.629 243.824 -457.625 248.723 -483.402
 c S Q
q 1 0 0 1 0 843 cm
194.32 -492.43 m 192.035 -474.625 199.422 -459.301 210.594 -458.113 c 221.762
 -456.922 233.484 -468.543 234.996 -483.141 c 237.539 -499.656 231.945 -519.523
 223.812 -531.906 c 209.918 -536.676 192.285 -538.102 176.02 -531.391 c 
158.73 -523.648 152.375 -509.988 156.402 -499.348 c 160.426 -488.703 178.305
 -486.234 194.32 -492.43 c h
194.32 -492.43 m S Q
q 1 0 0 1 0 843 cm
161.531 -511.008 m 165.219 -511.91 167.379 -513.586 171.699 -513.586 c 
174.113 -513.586 175.004 -510.363 176.527 -509.199 c 179.832 -506.75 181.613
 -506.879 181.867 -506.621 c 182.855 -505.617 182.121 -494.754 180.852 -495.266
 c 177.047 -496.812 179.582 -499.523 179.582 -500.941 c 175.004 -502.492
 l 173.73 -501.59 173.352 -500.168 171.699 -500.168 c 171.062 -500.168 170.047
 -500.422 169.41 -500.422 c 168.902 -502.746 l 169.539 -504.812 170.176 
-504.297 170.938 -505.844 c 169.285 -507.004 169.285 -509.715 167.125 -509.715
 c 165.98 -509.715 164.707 -509.199 163.566 -509.199 c 161.531 -511.004 
l h
161.531 -511.008 m S Q
q 1 0 0 1 0 843 cm
177.289 -523.582 m 180.977 -524.484 183.137 -526.16 187.461 -526.16 c 189.875
 -526.16 190.762 -522.934 192.285 -521.773 c 195.594 -519.324 197.375 -519.449
 197.625 -519.195 c 198.613 -518.191 197.879 -507.328 196.609 -507.84 c 
192.805 -509.387 195.34 -512.098 195.34 -513.516 c 190.762 -515.062 l 189.492
 -514.16 189.109 -512.738 187.457 -512.738 c 186.82 -512.738 185.805 -513
 185.168 -513 c 184.66 -515.32 l 185.297 -517.387 185.934 -516.871 186.695
 -518.418 c 185.043 -519.574 185.043 -522.289 182.883 -522.289 c 181.738
 -522.289 180.469 -521.773 179.324 -521.773 c 177.289 -523.578 l h
177.289 -523.582 m S Q
q 1 0 0 1 0 843 cm
201.625 -524.613 m 205.316 -525.516 207.477 -527.191 211.797 -527.191 c
 214.211 -527.191 215.102 -523.965 216.625 -522.805 c 219.93 -520.355 221.707
 -520.48 221.965 -520.223 c 222.953 -519.223 222.219 -508.355 220.945 -508.871
 c 217.141 -510.418 219.676 -513.129 219.676 -514.547 c 215.102 -516.094
 l 213.828 -515.191 213.445 -513.773 211.797 -513.773 c 211.16 -513.773 
210.145 -514.031 209.512 -514.031 c 209 -516.355 l 209.637 -518.418 210.273
 -517.902 211.035 -519.449 c 209.383 -520.609 209.383 -523.32 207.223 -523.32
 c 206.078 -523.32 204.809 -522.805 203.664 -522.805 c 201.633 -524.609 
l h
201.625 -524.613 m S Q
q 1 0 0 1 0 843 cm
206.457 -500.102 m 210.145 -501.004 212.305 -502.68 216.625 -502.68 c 219.039
 -502.68 219.93 -499.457 221.457 -498.293 c 224.762 -495.844 226.539 -495.973
 226.793 -495.715 c 227.785 -494.711 227.051 -483.844 225.777 -484.363 c
 221.973 -485.91 224.508 -488.617 224.508 -490.039 c 219.93 -491.59 l 218.66
 -490.684 218.277 -489.266 216.625 -489.266 c 215.992 -489.266 214.973 -489.523
 214.34 -489.523 c 213.828 -491.848 l 214.465 -493.91 215.102 -493.395 215.863
 -494.941 c 214.215 -496.102 214.215 -498.812 212.051 -498.812 c 210.906
 -498.812 209.637 -498.297 208.496 -498.297 c 206.461 -500.105 l h
206.457 -500.102 m S Q
q 1 0 0 1 0 843 cm
198.645 -481.266 m 202.332 -482.168 204.496 -483.844 208.816 -483.844 c
 211.23 -483.844 212.121 -480.617 213.645 -479.457 c 216.949 -477.008 218.73
 -477.137 218.98 -476.879 c 219.973 -475.875 219.238 -465.012 217.969 -465.523
 c 214.16 -467.074 216.695 -469.785 216.695 -471.203 c 212.121 -472.75 l
 210.852 -471.848 210.465 -470.43 208.816 -470.43 c 208.18 -470.43 207.164
 -470.688 206.531 -470.688 c 206.02 -473.012 l 206.656 -475.074 207.293 
-474.559 208.055 -476.105 c 206.402 -477.266 206.402 -479.977 204.242 -479.977
 c 203.098 -479.977 201.828 -479.457 200.684 -479.457 c 198.652 -481.266
 l h
198.645 -481.266 m S Q
q 1 0 0 1 0 843 cm
161.785 -488.559 m 197.883 -459.66 l S Q
q 1 0 0 1 0 843 cm
160.262 -485.461 m 195.848 -457.594 l S Q
q 1 0 0 1 0 843 cm
161.531 -488.301 m 160.008 -486.234 160.008 -483.398 157.719 -482.105 c
 155.555 -480.941 153.906 -481.59 152.633 -480.301 c 154.668 -478.234 155.406
 -478.234 160.516 -478.234 c 162.801 -478.234 165.09 -474.75 167.379 -473.074
 c 168.266 -472.43 172.969 -469.594 172.969 -468.426 c 172.969 -466.754 
167.504 -466.754 166.363 -465.59 c 169.41 -464.559 l 168.266 -463.785 167.633
 -463.012 167.633 -461.461 c 167.633 -460.301 168.902 -458.883 170.426 -458.883
 c 170.684 -458.883 173.223 -461.207 173.477 -461.723 c 173.73 -459.785 
174.875 -459.398 176.02 -458.883 c 176.02 -461.594 175.641 -463.785 175.766
 -465.594 c 178.559 -464.82 186.953 -458.629 188.477 -455.789 c 190.637 
-451.656 188.855 -450.5 193.309 -449.082 c 193.309 -452.176 l 194.07 -455.402
 196.609 -456.82 197.879 -459.398 c S Q
q 1 0 0 1 0 843 cm
166.566 -476.449 m 166.566 -476.02 166.793 -475.672 167.074 -475.672 c 
167.355 -475.672 167.578 -476.02 167.578 -476.449 c 167.578 -476.875 167.355
 -477.219 167.074 -477.219 c 166.793 -477.219 166.566 -476.875 166.566 -476.449
 c h
166.566 -476.449 m S Q
q 1 0 0 1 0 843 cm
166.566 -476.449 m 166.566 -476.02 166.793 -475.672 167.074 -475.672 c 
167.355 -475.672 167.578 -476.02 167.578 -476.449 c 167.578 -476.875 167.355
 -477.219 167.074 -477.219 c 166.793 -477.219 166.566 -476.875 166.566 -476.449
 c h
166.566 -476.449 m S Q
q 1 0 0 1 0 843 cm
175.516 -469.625 m 175.516 -469.195 175.742 -468.852 176.023 -468.852 c
 176.305 -468.852 176.531 -469.195 176.531 -469.625 c 176.531 -470.051 176.305
 -470.395 176.023 -470.395 c 175.742 -470.395 175.516 -470.051 175.516 -469.625
 c h
175.516 -469.625 m S Q
q 1 0 0 1 0 843 cm
184.273 -462.543 m 184.273 -462.117 184.496 -461.77 184.781 -461.77 c 185.059
 -461.77 185.285 -462.117 185.285 -462.543 c 185.285 -462.969 185.062 -463.312
 184.781 -463.312 c 184.496 -463.312 184.273 -462.969 184.273 -462.543 c
 h
184.273 -462.543 m S Q
q 1 0 0 1 0 843 cm
233.984 -403.41 m 233.984 -456.047 l S Q
q 1 0 0 1 0 843 cm
245.168 -436.438 m 248.219 -449.082 245.168 -457.98 245.168 -471.531 c S Q
q 1 0 0 1 0 843 cm
243.641 -395.152 m 244.656 -393.344 246.309 -393.602 247.961 -393.863 c
 S Q
q 1 0 0 1 0 843 cm
215.488 -372.742 m 215.488 -371.672 216.34 -370.805 217.395 -370.809 c 
218.445 -370.812 219.297 -371.676 219.297 -372.742 c 219.297 -373.812 218.449
 -374.676 217.398 -374.676 c 216.348 -374.676 215.492 -373.809 215.492 -372.742
 c h
215.488 -372.742 m S Q
q 1 0 0 1 0 843 cm
219.492 -371.41 m 236.016 -392.312 l S Q
q 1 0 0 1 0 843 cm
216.695 -373.996 m 234.488 -395.668 l S Q
q 1 0 0 1 0 843 cm
193.816 -352.578 m 202.711 -345.352 l 215.422 -360.316 l 206.527 -368.316
 l h
193.816 -352.578 m S Q
q 1 0 0 1 0 843 cm
195.594 -354.902 m 204.234 -347.676 l S Q
q 1 0 0 1 0 843 cm
197.629 -353.352 m 208.305 -365.996 l S Q
q 1 0 0 1 0 843 cm
200.172 -351.289 m 210.852 -363.418 l S Q
q 1 0 0 1 0 843 cm
202.711 -348.965 m 213.391 -362.125 l S Q
q 1 0 0 1 0 843 cm
215.422 -360.316 m 216.695 -370.379 l S Q
q 1 0 0 1 0 843 cm
207.293 -368.059 m 215.934 -370.641 l S Q
q 1 0 0 1 0 843 cm
191.09 -345.785 m 191.09 -343.508 192.734 -341.664 194.77 -341.664 c 196.805
 -341.664 198.453 -343.512 198.453 -345.789 c 198.457 -348.066 196.809 -349.914
 194.773 -349.914 c 192.738 -349.91 191.09 -348.062 191.09 -345.785 c h
191.09 -345.785 m S Q
q 1 0 0 1 0 843 cm
188.73 -345.871 m 196.867 -338.902 l 188.477 -335.809 l 196.867 -334.773
 l 190.512 -326.262 l 187.969 -335.035 l 186.953 -326.262 l 179.07 -333.227
 l 187.207 -335.809 l 178.816 -337.355 l 184.918 -345.094 l 187.461 -336.578
 l h
188.73 -345.871 m S Q
q 1 0 0 1 0 843 cm
157.207 -362.641 m 152.172 -357.195 151.617 -348.707 153.145 -344.062 c
 154.516 -339.879 161.344 -331.852 169.41 -331.16 c 165.074 -325.941 162.805
 -320.84 165.855 -314.129 c 169.246 -306.676 175.516 -302.262 184.223 -300.715
 c 183.699 -300.645 183.402 -300.59 182.883 -300.453 c 174.477 -298.301 
186.699 -278.523 186.699 -278.523 c 192.289 -270.27 l 196.105 -271.555 204.746
 -287.555 205.508 -296.586 c 205.691 -298.758 203.867 -299.289 202.461 -300.715
 c 211.449 -301.688 216.695 -310.004 218.73 -317.227 c 220.348 -322.98 217.801
 -327.387 213.645 -331.676 c 221.891 -332.934 229.406 -341.484 229.406 -346.125
 c 229.406 -353.887 229.355 -359.559 223.812 -364.703 c S Q
q 1 0 0 1 0 843 cm
264.996 -364.188 m 257.297 -359.914 253.844 -352.125 255.844 -343.547 c
 257.574 -336.117 262.168 -331.457 269.57 -329.613 c 262.75 -325.152 260.734
 -314.859 262.496 -309.953 c 264.082 -305.535 273.844 -296.172 282.789 -298.133
 c 276.688 -294.523 273.652 -285.422 277.18 -278.332 c 281.094 -270.457 
285.945 -266.227 296.012 -264.59 c 294.316 -262.496 293.586 -261.012 292.961
 -258.398 c 291.184 -250.992 301.254 -240.723 301.254 -240.723 c 307.715
 -232 l 312.117 -233.363 322.105 -250.262 322.984 -259.801 c 323.195 -262.094
 321.074 -262.691 319.461 -264.16 c 329.461 -264.176 335.902 -273.973 338.25
 -281.605 c 340.121 -287.688 336.176 -296.07 331.09 -297.875 c 340.449 -296.836
 350.578 -307.227 350.578 -312.133 c 350.578 -320.328 348.375 -323.492 341.766
 -331.23 c 348.574 -332.328 353.027 -335.984 355.426 -342.449 c 358.484 
-350.688 355.445 -359.223 347.871 -363.676 c S Q
q 1 0 0 1 0 843 cm
346.918 -364.258 m 387.016 -364.258 l 387.016 -364.258 389.809 -364.449
 389.809 -368.062 c 389.809 -369.637 387.586 -371.414 387.586 -371.414 c
 346.34 -371.414 l 346.34 -371.414 344.594 -369.398 344.309 -367.805 c 343.797
 -364.961 346.914 -364.258 346.914 -364.258 c h
346.918 -364.258 m S Q
q 1 0 0 1 0 843 cm
312.531 -326.777 m 310.371 -328.324 307.941 -328.32 306.559 -330.004 c 
305.289 -331.551 301.531 -332.113 300.332 -333.484 c 296.262 -338.133 296.012
 -342.258 296.012 -350 c 296.012 -353.094 295.375 -354.516 295.246 -357.227
 c 296.262 -366.512 l S Q
q 1 0 0 1 0 843 cm
295.5 -354.641 m 298.551 -358.902 305.16 -363.93 312.023 -363.93 c 319.27
 -363.93 323.719 -352.32 322.957 -343.031 c 322.461 -336.988 320.543 -334.645
 317.871 -331.934 c 316.219 -330.262 315.328 -329.742 314.312 -327.551 c
 S Q
q 1 0 0 1 0 843 cm
317.363 -361.867 m 318.633 -362.512 319.395 -362.898 320.156 -363.93 c 
327.781 -359.805 330.477 -351.488 329.816 -342.258 c 329.516 -338.074 326.766
 -331.938 326.766 -331.938 c S Q
q 1 0 0 1 0 843 cm
293.723 -325.742 m 289.906 -333.484 285.332 -338.258 285.332 -349.48 c 
285.332 -356.191 289.398 -358.77 294.738 -360.062 c S Q
q 1 0 0 1 0 843 cm
296.773 -337.871 m 295.375 -337.223 294.738 -336.453 294.738 -335.289 c
 294.738 -334.902 294.738 -334.645 294.738 -334.254 c S Q
q 1 0 0 1 0 843 cm
295.75 -344.324 m 294.988 -343.16 292.828 -342.516 292.449 -341.742 c S Q
q 1 0 0 1 0 843 cm
295.5 -348.191 m 295.246 -348.836 293.848 -350.254 292.957 -350.254 c 291.941
 -350.254 291.562 -348.711 291.434 -347.68 c S Q
q 1 0 0 1 0 843 cm
294.992 -352.32 m 294.609 -353.996 295.117 -355.543 293.465 -355.543 c 
293.211 -355.543 290.289 -352.578 290.289 -352.578 c S Q
q 1 0 0 1 0 843 cm
322.953 -347.23 m 323.461 -344.906 325.367 -344.641 326.516 -343.09 c S Q
q 1 0 0 1 0 843 cm
321.426 -354.641 m 322.195 -352.965 323.969 -352.453 325.621 -351.934 c
 S Q
q 1 0 0 1 0 843 cm
320.41 -358.844 m 321.172 -357.809 l 323.207 -358.586 l S Q
q 1 0 0 1 0 843 cm
326.004 -330.645 m 327.402 -326.133 332.109 -321.227 333.887 -316.969 c
 331.09 -314.906 327.789 -318.777 326.516 -321.355 c 323.465 -319.805 322.195
 -318.516 318.125 -317.484 c 318.508 -316.84 321.297 -314.254 320.668 -313.617
 c 319.145 -312.066 315.586 -310.52 315.586 -306.391 c 312.531 -310.516 
l 311.391 -310.516 310.629 -310.648 309.484 -310.516 c 308.469 -312.586 
309.359 -313.613 309.738 -315.934 c 305.289 -315.422 305.164 -312.582 296.012
 -314.902 c 294.215 -315.359 294.992 -311.293 293.469 -310.516 c 292.199
 -309.871 289.238 -308.516 289.656 -310 c 291.18 -315.422 292.328 -320.066
 293.723 -325.738 c 295.758 -325.738 l 297.793 -325.227 304.527 -325.738
 306.43 -325.738 c 314.312 -325.738 320.035 -328.707 326.008 -330.645 c 
h
326.004 -330.645 m S Q
q 1 0 0 1 0 843 cm
369.223 -371.934 m 369.223 -392.828 l S Q
q 1 0 0 1 0 843 cm
369.477 -385.605 m 370.617 -380.703 376.211 -372.965 381.93 -372.965 c 
386.379 -372.965 387.781 -375.801 387.781 -379.414 c 387.781 -381.348 385.109
 -383.801 383.199 -383.801 c 381.297 -383.801 380.152 -382.77 380.152 -381.219
 c 380.152 -380.449 380.152 -379.93 380.152 -379.156 c S Q
q 1 0 0 1 0 843 cm
369.477 -392.574 m 371.508 -388.316 374.941 -384.574 380.66 -384.574 c 
383.074 -384.574 383.453 -386.125 383.453 -388.188 c 383.453 -390.121 382.184
 -391.027 380.66 -391.027 c 380.027 -391.027 379.516 -391.027 378.879 -391.027
 c 378.879 -387.672 l S Q
q 1 0 0 1 0 843 cm
368.965 -387.672 m 367.312 -380.574 365.66 -372.117 356.762 -372.117 c 
352.059 -372.117 349.898 -375.215 349.898 -379.086 c 349.898 -382.309 353.457
 -383.801 356.508 -383.801 c 358.035 -383.801 359.305 -382.25 359.305 -380.703
 c 359.305 -379.543 358.289 -378.25 357.777 -377.863 c S Q
q 1 0 0 1 0 843 cm
368.453 -391.285 m 367.188 -387.156 363.883 -384.836 359.051 -384.836 c
 356.766 -384.836 356.004 -385.992 356.004 -387.93 c 356.004 -390.508 357.402
 -390.438 359.562 -390.438 c 360.703 -390.438 360.383 -389.02 360.766 -387.859
 c S Q
q 1 0 0 1 0 843 cm
361.34 -389.219 m 362.102 -390.766 362.484 -392.059 362.609 -394.383 c S Q
q 1 0 0 1 0 843 cm
378.117 -389.219 m 377.863 -391.156 377.48 -391.797 377.102 -393.348 c S Q
q 1 0 0 1 0 843 cm
360.395 -394.938 m 379.566 -394.938 l 379.566 -394.938 380.902 -395.109
 380.902 -398.434 c 380.902 -399.879 379.934 -401.516 379.934 -401.516 c
 360.121 -401.516 l 360.121 -401.516 359.285 -399.66 359.145 -398.195 c 
358.906 -395.586 360.395 -394.938 360.395 -394.938 c h
360.395 -394.938 m S Q
q 1 0 0 1 0 843 cm
139.418 -363.223 m 157.207 -363.223 l 157.207 -363.223 160.004 -363.414
 160.004 -367.027 c 160.004 -368.605 157.781 -370.379 157.781 -370.379 c
 139.156 -370.379 l S Q
q 1 0 0 1 0 843 cm
139.16 -385.863 m 141.066 -378.125 145.898 -371.93 154.668 -371.93 c 158.609
 -371.93 159.5 -374.641 159.5 -377.863 c 159.5 -381.09 156.703 -381.996 
153.906 -381.996 c 152 -381.996 151.109 -381.094 151.109 -379.414 c 151.109
 -377.48 152.887 -377.09 154.414 -377.09 c S Q
q 1 0 0 1 0 843 cm
139.672 -392.312 m 142.34 -388.703 146.406 -385.348 151.109 -383.801 c 
151.109 -383.801 155.43 -383.027 154.668 -387.156 c 154.27 -389.309 153.652
 -390.25 151.871 -390.25 c 150.855 -390.25 150.094 -389.992 150.094 -389.219
 c 150.094 -388.828 150.094 -388.57 150.094 -388.188 c S Q
q 1 0 0 1 0 843 cm
149.328 -389.992 m 148.695 -390.25 148.059 -390.895 148.059 -391.539 c 
148.059 -391.926 148.059 -392.184 148.059 -392.57 c S Q
q 1 0 0 1 0 843 cm
140.434 -393.863 m 141.195 -393.477 141.578 -393.414 142.469 -393.414 c
 146.406 -393.414 149.84 -393.477 149.84 -396.957 c 149.84 -399.406 146.027
 -399.465 143.484 -399.465 c 141.582 -399.465 140.055 -398.633 139.418 -396.957
 c 139.418 -394.891 l S Q
q 1 0 0 1 0 843 cm
146.535 -399.793 m 146.535 -470.496 l S Q
q 1 0 0 1 0 843 cm
138.652 -313.871 m 138.398 -504.555 l S Q
q 1 0 0 1 0 843 cm
131.281 -491.137 m 132.297 -326 l S Q
q 1 0 0 1 0 843 cm
248.723 -408.57 m 288.383 -458.887 l S Q
q 1 0 0 1 0 843 cm
248.98 -414.504 m 265.758 -434.375 l 286.098 -460.434 l S Q
q 1 0 0 1 0 843 cm
376.285 -363.438 m 384.867 -328.812 400.508 -294.695 422.711 -271.777 c
 422.711 -271.777 448.262 -283.867 466.613 -363 c S Q
q 1 0 0 1 0 843 cm
372.246 -362.422 m 381.328 -320.664 400.508 -288.074 422.711 -265.156 c
 422.711 -265.156 456.016 -288.582 470.648 -361.402 c S Q
q 1 0 0 1 0 843 cm
387.891 -362.934 m 382.516 -357.961 382.34 -349.184 383.852 -344.598 c 
385.219 -340.473 393.113 -333.727 400.742 -334.516 c 395.32 -329.809 392.121
 -323.59 395.148 -316.973 c 398.512 -309.613 405.57 -305.082 414.215 -303.551
 c 413.691 -303.484 413.395 -303.426 412.883 -303.301 c 403.898 -301.039
 417.16 -279.926 417.16 -279.926 c 422.711 -271.777 l 424.895 -275.168 435.062
 -289.363 435.312 -299.422 c 435.371 -301.574 433.281 -302.684 431.504 -304.328
 c 439.129 -305.875 446.246 -312.324 448.789 -319.551 c 450.746 -325.113
 448.324 -330.914 443.703 -335.547 c 451.242 -335.395 459.547 -342.051 459.547
 -346.637 c 459.547 -354.293 459.934 -360.426 454 -364.969 c S Q
q 1 0 0 1 0 843 cm
472.172 -365.152 m 454.379 -365.152 l 454.379 -365.152 451.586 -365.344
 451.586 -368.953 c 451.586 -370.531 453.805 -372.309 453.805 -372.309 c
 472.43 -372.309 l S Q
q 1 0 0 1 0 843 cm
472.176 -315.992 m 472.363 -503.527 l S Q
q 1 0 0 1 0 843 cm
479.035 -490.625 m 478.719 -327.93 l S Q
q 1 0 0 1 0 843 cm
462.77 -402.895 m 462.77 -474.488 l S Q
q 1 0 0 1 0 843 cm
458.699 -378.641 m 460.227 -379.414 460.48 -380.703 460.48 -382.25 c 460.48
 -382.898 459.719 -383.156 459.719 -383.805 c 458.449 -383.805 457.43 -384.059
 457.176 -384.059 c 453.996 -384.059 453.109 -381.219 453.109 -378.641 c
 453.109 -374.77 455.145 -372.965 458.449 -372.965 c 467.473 -372.965 470.773
 -383.93 471.41 -392.574 c S Q
q 1 0 0 1 0 843 cm
471.664 -402.895 m 465.562 -402.895 l 463.277 -402.508 460.48 -402.121 
460.48 -399.281 c 460.48 -397.219 462.262 -395.801 464.039 -395.152 c 471.156
 -395.41 l 470.777 -389.605 467.473 -384.574 461.754 -384.574 c 458.957 
-384.574 l 458.957 -385.867 458.957 -387.672 458.957 -387.926 c 458.957 
-389.219 460.227 -390.508 461.5 -390.508 c 462.391 -390.508 462.895 -389.605
 463.277 -388.961 c 463.402 -390.895 463.531 -392.188 463.277 -394.121 c
 S Q
q 1 0 0 1 0 843 cm
363.094 -480.625 m 369.406 -459.148 389.016 -443.492 412.227 -443.492 c
 440.539 -443.492 463.492 -466.789 463.492 -495.523 c 463.492 -524.262 440.539
 -547.559 412.227 -547.559 c 393.941 -547.559 377.895 -537.848 368.82 -523.227
 c S Q
q 1 0 0 1 0 843 cm
369.863 -529.816 m 379.641 -542.68 394.98 -550.969 412.227 -550.969 c 444.465
 -551.004 466.848 -525.5 466.848 -495.527 c 466.848 -465.555 442.332 -440.086
 412.805 -440.086 c 390.316 -440.086 370.18 -453.633 362.195 -473.121 c S Q
q 1 0 0 1 0 843 cm
399.98 -473.34 m 413.449 -489.594 l S Q
q 1 0 0 1 0 843 cm
413.703 -489.852 m 428.707 -477.465 l S Q
q 1 0 0 1 0 843 cm
392.098 -510.75 m 432.516 -479.527 l S Q
q 1 0 0 1 0 843 cm
391.336 -506.625 m 407.098 -494.238 l S Q
q 1 0 0 1 0 843 cm
396.672 -512.555 m 411.672 -500.172 l S Q
q 1 0 0 1 0 843 cm
418.281 -495.523 m 434.043 -483.141 l S Q
q 1 0 0 1 0 843 cm
396.418 -474.301 m 428.449 -514.551 l S Q
q 1 0 0 1 0 843 cm
393.875 -478.496 m 407.348 -493.98 l S Q
q 1 0 0 1 0 843 cm
411.926 -499.395 m 424.379 -516.172 l S Q
q 1 0 0 1 0 843 cm
418.531 -495.523 m 430.738 -511.266 l S Q
q 1 0 0 1 0 843 cm
422.855 -518.105 m 422.855 -516.555 l 423.492 -516.555 424 -516.555 424.379
 -516.555 c 425.648 -516.555 425.906 -518.621 427.172 -518.621 c 428.699
 -518.621 428.574 -515.652 428.574 -514.879 c 430.605 -515.395 l 431.242
 -515.137 431.371 -514.621 431.621 -514.105 c 431.117 -511.527 l 431.117
 -511.012 431.371 -510.496 431.879 -510.234 c S Q
q 1 0 0 1 0 843 cm
389.176 -504.945 m 389.809 -505.199 390.441 -505.848 390.441 -506.492 c
 388.793 -509.586 l 388.793 -509.586 388.523 -510.238 388.793 -510.363 c
 390.191 -511.008 391.957 -509.805 392.098 -510.363 c 392.352 -511.395 391.02
 -513.113 392.098 -514.105 c 393.297 -515.203 394.641 -513.199 396.164 -513.199
 c 396.672 -513.199 397.055 -514.105 397.055 -514.359 c S Q
q 1 0 0 1 0 843 cm
392.352 -479.785 m 393.238 -479.527 393.625 -479.016 393.75 -478.367 c 
393.367 -476.305 l 393.367 -474.75 l 396.672 -474.75 l 396.672 -473.848 
396.672 -473.078 396.672 -472.176 c 397.559 -472.176 l 400.613 -473.203 
l 401.629 -472.816 l S Q
q 1 0 0 1 0 843 cm
427.688 -475.531 m 428.07 -476.305 428.574 -476.82 429.34 -476.949 c 432.391
 -476.172 l 433.152 -477.207 432.391 -478.242 432.391 -479.398 c 435.566
 -479.398 l 435.566 -480.043 l 434.93 -483.527 l 434.93 -484.559 l S Q
q 1 0 0 1 0 843 cm
406.535 -475.469 m 406.527 -471.27 409.938 -467.867 414.145 -467.871 c 
418.352 -467.875 421.762 -471.281 421.77 -475.48 c 421.773 -479.68 418.363
 -483.082 414.156 -483.078 c 409.949 -483.074 406.535 -479.668 406.531 -475.469
 c h
406.535 -475.469 m S Q
q 1 0 0 1 0 843 cm
401.484 -515.156 m 401.48 -510.961 404.891 -507.559 409.098 -507.559 c 
413.305 -507.566 416.715 -510.973 416.719 -515.172 c 416.727 -519.371 413.316
 -522.773 409.109 -522.77 c 404.902 -522.766 401.488 -519.359 401.484 -515.156
 c h
401.484 -515.156 m S Q
q 1 0 0 1 0 843 cm
424.328 -497.391 m 424.32 -493.191 427.73 -489.789 431.938 -489.793 c 436.145
 -489.797 439.555 -493.199 439.562 -497.402 c 439.566 -501.602 436.156 -505
 431.945 -504.996 c 427.742 -504.996 424.328 -501.59 424.324 -497.391 c 
h
424.328 -497.391 m S Q
q 1 0 0 1 0 843 cm
383.762 -492.977 m 383.758 -488.922 387.207 -485.637 391.469 -485.637 c
 395.727 -485.641 399.18 -488.934 399.184 -492.988 c 399.188 -497.047 395.734
 -500.332 391.48 -500.328 c 387.219 -500.324 383.766 -497.035 383.762 -492.977
 c h
383.762 -492.977 m S Q
q 1 0 0 1 0 843 cm
377.98 -495.266 m 377.98 -476.742 393.93 -461.141 412.18 -461.141 c 430.43
 -461.141 445.801 -476.742 445.801 -495.266 c 445.801 -513.793 430.43 -528.812
 412.18 -528.812 c 393.926 -528.812 377.977 -513.793 377.977 -495.266 c 
h
377.98 -495.266 m S Q
q 1 0 0 1 0 843 cm
111.406 -410.68 m 111.32 -304.766 197.652 -218.977 304.242 -219.055 c 410.828
 -219.137 497.301 -305.059 497.387 -410.969 c 497.477 -516.883 411.141 -602.672
 304.555 -602.594 c 197.965 -602.512 111.492 -516.59 111.406 -410.68 c h
111.406 -410.68 m S Q
q 1 0 0 1 0 843 cm
45.039 -410.113 m 44.922 -267.188 160.715 -151.414 303.68 -151.52 c 446.641
 -151.625 562.625 -267.578 562.742 -410.504 c 562.859 -553.426 447.062 -669.203
 304.102 -669.098 c 161.137 -668.988 45.156 -553.039 45.039 -410.113 c h
45.039 -410.113 m S Q
q 1 0 0 1 0 843 cm
50.219 -410.117 m 50.102 -270.051 163.578 -156.594 303.684 -156.699 c 443.785
 -156.805 557.449 -270.434 557.562 -410.5 c 557.68 -550.566 444.199 -664.023
 304.098 -663.918 c 163.992 -663.812 50.328 -550.184 50.219 -410.117 c h
50.219 -410.117 m S Q
q 1 0 0 1 0 843 cm
56.535 -410.125 m 56.422 -273.547 167.078 -162.914 303.688 -163.016 c 440.297
 -163.117 551.133 -273.914 551.242 -410.496 c 551.355 -547.074 440.703 -657.707
 304.094 -657.602 c 167.48 -657.5 56.645 -546.703 56.535 -410.125 c h
56.535 -410.125 m S Q
q 1 0 0 1 0 843 cm
106.566 -410.676 m 106.473 -302.105 194.977 -214.16 304.238 -214.242 c 
413.5 -214.32 502.145 -302.402 502.234 -410.973 c 502.324 -519.547 413.824
 -607.488 304.559 -607.406 c 195.297 -607.324 106.652 -519.246 106.562 -410.676
 c h
106.566 -410.676 m S Q
q 1 0 0 1 0 843 cm
100.625 -410.672 m 100.531 -298.84 191.688 -208.254 304.234 -208.34 c 416.777
 -208.426 508.082 -299.148 508.172 -410.98 c 508.266 -522.809 417.109 -613.391
 304.566 -613.309 c 192.023 -613.223 100.715 -522.5 100.625 -410.672 c h
100.625 -410.672 m S Q
q 1 0 0 1 0 843 cm
231.875 -260.43 m 231.434 -259.633 231.184 -258.719 231.184 -257.754 c 
231.184 -254.547 233.918 -251.949 237.285 -251.949 c 240.656 -251.949 243.387
 -254.547 243.387 -257.754 c 243.387 -258.477 243.246 -259.172 242.992 -259.809
 c 243.891 -259.875 244.621 -260.578 245.422 -261.109 c 248.066 -262.855
 249.035 -266.109 247.199 -268.977 c 245.363 -271.844 241.711 -272.914 239.066
 -271.168 c 238.465 -270.773 237.969 -270.277 237.578 -269.711 c 237.188
 -270.277 236.484 -270.645 235.887 -271.039 c 233.238 -272.785 229.109 -272.562
 227.273 -269.695 c 225.441 -266.828 226.098 -263.086 228.75 -261.34 c 229.551
 -260.812 230.438 -260.523 231.336 -260.465 c S Q
q 1 0 0 1 0 843 cm
236.906 -245.238 m 236.648 -248.977 240.211 -248.465 242.242 -249.496 c
 244.914 -250.785 246.059 -252.98 246.438 -256.461 c 246.648 -258.367 248.98
 -259.688 249.996 -260.203 c 251.27 -260.848 251.652 -262.785 251.777 -264.074
 c 252.285 -267.172 249.996 -270.395 253.176 -272.074 c S Q
q 1 0 0 1 0 843 cm
236.781 -245.625 m 236.781 -248.59 234.543 -248.465 232.512 -249.496 c 
229.844 -250.785 228.699 -252.98 228.32 -256.461 c 228.113 -258.367 225.777
 -260.27 224.762 -260.789 c 223.488 -261.438 223.105 -263.367 222.98 -264.66
 c 222.473 -267.754 224.762 -270.395 221.582 -272.074 c S Q
q 1 0 0 1 0 843 cm
222.16 -271.812 m 222.668 -271.812 223.176 -271.812 223.688 -271.812 c 
225.336 -271.812 225.59 -273.363 226.227 -273.75 c 228.008 -275.039 229.914
 -275.941 232.328 -275.941 c 234.613 -275.941 236.145 -274.676 237.156 -274.266
 c 237.793 -274.008 240.59 -275.688 241.988 -275.688 c 246.434 -275.688 
249.105 -273.234 251.141 -271.172 c S Q
q 1 0 0 1 0 843 cm
371.453 -260.105 m 371.086 -259.27 370.918 -258.34 371 -257.379 c 371.273
 -254.184 374.219 -251.836 377.578 -252.133 c 380.934 -252.434 383.43 -255.266
 383.156 -258.457 c 383.094 -259.18 382.895 -259.859 382.586 -260.473 c 
383.477 -260.617 384.145 -261.387 384.895 -261.977 c 387.383 -263.953 388.062
 -267.281 385.988 -269.977 c 383.914 -272.672 380.188 -273.414 377.695 -271.441
 c 377.133 -270.992 376.68 -270.457 376.344 -269.855 c 375.906 -270.387 
375.176 -270.691 374.543 -271.031 c 371.754 -272.535 367.664 -271.949 366.082
 -268.93 c 364.496 -265.91 365.477 -262.238 368.266 -260.734 c 369.105 -260.281
 370.016 -260.078 370.918 -260.094 c S Q
q 1 0 0 1 0 843 cm
377.77 -245.418 m 377.195 -249.121 380.789 -248.926 382.727 -250.133 c 
385.273 -251.652 386.223 -253.938 386.305 -257.441 c 386.348 -259.359 388.559
 -260.879 389.527 -261.484 c 390.738 -262.238 390.953 -264.203 390.969 -265.496
 c 391.207 -268.629 388.652 -271.637 391.676 -273.59 c S Q
q 1 0 0 1 0 843 cm
377.613 -245.793 m 377.355 -248.746 375.145 -248.418 373.027 -249.27 c 
370.258 -250.316 368.934 -252.402 368.254 -255.84 c 367.883 -257.719 365.395
 -259.41 364.336 -259.836 c 363.012 -260.363 362.469 -262.258 362.23 -263.531
 c 361.457 -266.57 363.508 -269.406 360.199 -270.797 c S Q
q 1 0 0 1 0 843 cm
360.801 -270.59 m 361.309 -270.633 361.816 -270.676 362.32 -270.723 c 363.969
 -270.867 364.086 -272.434 364.688 -272.875 c 366.348 -274.32 368.172 -275.383
 370.574 -275.602 c 372.855 -275.805 374.484 -274.676 375.531 -274.355 c
 376.188 -274.156 378.832 -276.074 380.223 -276.199 c 384.656 -276.59 387.527
 -274.387 389.727 -272.508 c S Q
q 1 0 0 1 0 843 cm
361.59 -544.809 m 362.605 -553.586 l 367.055 -553.84 370.105 -553.328 374.809
 -554.098 c 430.738 -554.617 l S Q
q 1 0 0 1 0 843 cm
282.789 -553.133 m 323.461 -553.133 l S Q
q 1 0 0 1 0 843 cm
197.375 -568.547 m 409.891 -569.582 l S Q
q 1 0 0 1 0 843 cm
243.305 -205.609 m 245.375 -207.332 248.387 -206.57 249.996 -204.469 c 
251.113 -203.012 251.238 -201.598 250.762 -199.824 c 250.184 -197.68 249.031
 -196.762 246.723 -195.805 c 242.73 -194.152 l 241.539 -193.645 240.125 
-192.707 239.32 -192.082 c 237.863 -190.938 236.914 -189.91 236.523 -188.215
 c 236.02 -186.004 236.723 -184.039 237.75 -182.285 c 238.758 -180.559 240.395
 -179.477 242.641 -179.008 c 243.551 -178.828 245.016 -178.152 246.438 -178.406
 c 247.852 -178.621 250 -176.344 250 -176.344 c 252.289 -183.312 l 252.289
 -183.312 249.777 -182.395 248.035 -181.551 c 246.336 -180.719 244.312 -181.656
 243.137 -183.312 c 241.496 -185.609 243.719 -189.602 245.27 -190.238 c 
249.367 -191.918 l 251.922 -192.961 253.793 -194 255.008 -195.09 c 256.184
 -196.156 256.957 -197.547 257.371 -199.285 c 257.898 -201.582 257.543 -203.645
 256.281 -205.535 c 255.055 -207.391 253.191 -208.566 250.68 -209.062 c 
249.438 -209.309 245.27 -209.527 245.168 -209.887 c 245.078 -210.219 243.09
 -210.094 243.117 -210.488 c 242.23 -210.664 l 240.34 -202.922 l 240.34 
-202.922 242.086 -204.617 243.305 -205.609 c h
243.305 -205.609 m S Q
q 1 0 0 1 0 843 cm
257.117 -175.055 m 277.199 -171.184 l 278.215 -178.152 l 274.656 -176.086
 l 270.844 -176.344 l 275.418 -199.824 l 276.688 -202.664 l 269.32 -203.953
 l 269.828 -200.344 l 265.504 -177.121 l 261.438 -178.926 l 259.148 -181.762
 l h
257.117 -175.055 m S Q
q 1 0 0 1 0 843 cm
283.809 -170.668 m 289.656 -170.41 l 296.773 -190.539 l 301.094 -175.055
 l 301.348 -171.445 l 300.078 -170.152 l 306.176 -169.379 l 296.52 -201.117
 l 286.098 -172.992 l h
283.809 -170.668 m S Q
q 1 0 0 1 0 843 cm
312.277 -169.379 m 313.297 -170.668 l 310.5 -197.762 l 309.23 -200.598 
l 311.262 -201.375 l 317.363 -201.891 318.723 -202.855 320.922 -201.891 
c 328.551 -198.535 329.82 -185.633 329.059 -179.184 c 328.441 -173.953 324.648
 -171.176 319.656 -169.637 c 316.906 -168.789 315.086 -168.723 312.281 -169.379
 c h
312.277 -169.379 m S Q
q 1 0 0 1 0 843 cm
318.125 -173.508 m 315.078 -198.02 l 316.996 -198.531 318.184 -198.488 
320.16 -198.277 c 324.988 -197.762 326.77 -174.023 320.668 -174.281 c 319.633
 -174.324 319.145 -173.707 318.125 -173.508 c h
318.125 -173.508 m S Q
q 1 0 0 1 0 843 cm
336.938 -171.957 m 343.039 -172.988 l 342.02 -174.539 l 337.699 -201.371
 l 338.465 -203.18 l 331.855 -202.406 l 333.824 -196.301 334.672 -192.746
 335.668 -186.41 c 336.551 -180.82 336.832 -177.617 336.941 -171.957 c h
336.938 -171.957 m S Q
q 1 0 0 1 0 843 cm
358.891 -174.688 m 360.012 -174.973 l 364.645 -176.145 367.191 -181.504
 365.66 -187.184 c 362.355 -198.277 l 361.203 -202.98 357.078 -206.938 352.445
 -205.766 c 351.32 -205.484 l 346.688 -204.309 344.422 -197.562 345.578 
-192.859 c 347.867 -183.312 l 349.023 -178.609 354.254 -173.516 358.887 
-174.684 c h
358.449 -179.23 m 358.957 -179.488 l 361.043 -180.551 361.852 -184.453 
360.73 -188.367 c 358.391 -196.004 l 357.512 -199.258 355.297 -201.832 353.207
 -200.77 c 352.699 -200.516 l 350.613 -199.453 350.031 -194.59 350.906 -191.34
 c 352.664 -184.742 l 353.543 -181.492 356.359 -178.176 358.449 -179.23 
c h
358.449 -179.23 m S Q
q 1 0 0 1 0 843 cm
373.289 -179.188 m 374.305 -180.992 l 369.727 -195.957 l 365.406 -207.309
 l 369.984 -209.117 l 373.035 -199.312 l 373.535 -198.688 374.023 -198.406
 374.812 -198.281 c 376.789 -197.957 378.75 -200.617 377.863 -202.41 c 376.898
 -204.953 376.832 -206.773 377.605 -209.379 c 378.215 -211.406 378.898 -212.539
 380.406 -214.023 c 380.148 -210.41 380.406 -208.348 381.93 -203.188 c 382.352
 -201.754 381.32 -200.91 380.66 -199.574 c 383.605 -198.395 385.242 -196.812
 386.508 -193.898 c 387.992 -190.48 387.836 -187.598 385.996 -184.348 c 
382.945 -182.027 l 373.285 -179.188 l h
373.289 -179.188 m S Q
q 1 0 0 1 0 843 cm
378.629 -184.348 m 375.832 -194.148 l 376.227 -195.355 376.922 -196.066
 378.117 -196.473 c 378.879 -196.73 381.859 -194.047 382.695 -191.57 c 383.336
 -189.66 383.336 -188.316 382.695 -186.41 c 380.152 -184.086 l h
378.629 -184.348 m S Q
q 1 0 0 1 0 843 cm
395.152 -186.926 m 399.727 -188.992 l 396.422 -209.371 l 409.641 -196.215
 l 409.895 -193.633 l 415.23 -196.473 l 391.59 -218.406 l 390.32 -218.148
 l 394.895 -196.734 l 395.152 -186.93 l h
395.152 -186.926 m S Q
q 1 0 0 1 0 843 cm
421.59 -199.055 m 421.332 -203.441 l 417.402 -208.852 415.043 -211.812 
410.652 -216.855 c 408.148 -219.738 406.691 -221.328 404.047 -224.078 c 
406.332 -226.402 l 409.383 -228.211 l 422.352 -209.891 l 422.859 -214.531
 l 422.605 -219.949 l 433.027 -216.082 l 420.828 -234.145 l 422.605 -236.723
 l 425.148 -237.242 l 425.656 -233.367 l 439.637 -211.695 l 437.602 -209.633
 l 426.16 -216.082 l 425.398 -209.371 l 426.16 -202.922 l 421.586 -199.055
 l h
421.59 -199.055 m S Q
q 1 0 0 1 0 843 cm
440.359 -233.078 m 440.359 -229.945 443.027 -227.41 446.324 -227.414 c 
449.621 -227.414 452.297 -229.957 452.297 -233.086 c 452.297 -236.219 449.633
 -238.754 446.336 -238.754 c 443.039 -238.75 440.367 -236.211 440.363 -233.074
 c h
440.359 -233.078 m S Q
q 1 0 0 1 0 843 cm
444.719 -253.238 m 449.805 -251.434 l 458.957 -244.984 l 466.836 -238.273
 l 468.871 -234.918 l 468.617 -233.113 l 472.43 -236.984 l 469.121 -250.66
 l 481.582 -247.305 l 483.359 -249.629 l 466.328 -266.656 l 464.293 -269.496
 l 463.277 -272.594 l 459.973 -268.465 l 476.496 -252.207 l 465.309 -254.273
 l 467.348 -244.465 l 460.738 -249.113 l 450.566 -258.918 l 444.723 -253.238
 l h
444.719 -253.238 m S Q
q 1 0 0 1 0 843 cm
488.191 -255.562 m 490.984 -259.172 l 478.785 -275.945 l 479.039 -276.977
 l 495.562 -271.301 l 497.598 -268.203 l 500.898 -272.59 l 470.395 -282.137
 l 480.82 -266.656 l 488.188 -255.562 l h
488.191 -255.562 m S Q
q 1 0 0 1 0 843 cm
480.309 -293.75 m 484.379 -291.941 l 502.426 -280.074 l 505.477 -277.492
 l 509.797 -284.719 l 510.629 -286.152 510.887 -287.191 510.812 -288.848
 c 510.668 -292.066 508.605 -293.684 505.984 -295.555 c 503.914 -297.031
 502.414 -297.605 499.883 -297.879 c 497.34 -297.102 l 496.152 -298.98 495.422
 -300.012 494.035 -301.75 c 491.879 -304.457 490.52 -305.895 487.938 -308.199
 c 487.938 -308.199 486.711 -304.078 487.938 -302.008 c 488.699 -300.715
 493.273 -296.586 493.273 -296.586 c 494.176 -296.051 494.504 -294.949 494.035
 -294.008 c 493.602 -293.129 492.691 -292.719 491.746 -292.977 c 484.629
 -296.848 l 482.852 -298.395 l h
480.309 -293.75 m S Q
q 1 0 0 1 0 843 cm
495.816 -289.879 m 505.73 -284.461 l 507.254 -286.527 l 506.82 -288.93 
505.789 -290.426 503.695 -291.688 c 501.641 -292.922 499.555 -293.848 497.594
 -292.461 c 496.598 -291.758 496.117 -291.062 495.816 -289.879 c h
495.816 -289.879 m S Q
q 1 0 0 1 0 843 cm
497.848 -324.195 m 503.445 -321.102 l 499.375 -319.555 l 498.32 -318.977
 497.773 -318.352 497.344 -317.23 c 496.41 -314.801 497.879 -311.949 500.395
 -311.297 c 510.816 -305.363 l 513.07 -304.668 515.047 -305.191 516.664 
-306.91 c 518.598 -308.969 518.801 -311.828 517.172 -314.137 c 523.02 -311.039
 l 523.02 -311.039 522.453 -305.152 519.965 -302.781 c 517.355 -300.285 
511.07 -300.203 511.07 -300.203 c 511.07 -300.203 505.285 -301.98 501.922
 -303.816 c 498.836 -305.496 494.547 -308.98 494.547 -308.98 c 491.82 -311.766
 491.109 -315.031 492.258 -318.781 c 493.098 -321.516 494.977 -323.227 497.852
 -324.199 c h
497.848 -324.195 m S Q
q 1 0 0 1 0 843 cm
497.848 -328.84 m 502.586 -327.59 505.227 -326.734 509.801 -324.969 c 514.574
 -323.129 517.215 -321.93 521.746 -319.555 c 525.305 -316.199 l 527.336 
-322.391 l 522.297 -324.066 519.492 -325.152 514.629 -327.293 c 508.93 -329.801
 505.781 -331.402 500.391 -334.516 c h
497.848 -328.84 m S Q
q 1 0 0 1 0 843 cm
501.66 -338.902 m 533.184 -338.645 l 533.691 -340.195 l 512.336 -355.418
 l 508.016 -360.062 l 506.492 -354.129 l 508.555 -354.031 509.793 -353.648
 511.574 -352.582 c 513.207 -351.605 514.082 -350.824 515.133 -349.227 c
 515.133 -349.227 515.176 -347.613 514.879 -346.648 c 514.457 -345.266 512.848
 -343.551 512.848 -343.551 c 510.531 -342.965 509.816 -342.965 507.508 -343.551
 c 505.824 -343.977 504.863 -344.363 503.441 -345.355 c 501.66 -338.906 
l h
501.66 -338.902 m S Q
q 1 0 0 1 0 843 cm
517.68 -343.031 m 518.691 -347.418 l 526.066 -342.52 l 517.676 -343.031
 l h
517.68 -343.031 m S Q
q 1 0 0 1 0 843 cm
508.527 -363.676 m 514.883 -363.934 l 536.488 -359.289 l 538.266 -357.484
 l 539.285 -363.418 l 519.711 -380.188 l 522 -380.188 535.219 -377.09 538.52
 -376.059 c 539.996 -375.598 540.34 -374.43 541.316 -373.219 c 541.824 -379.414
 l 512.336 -385.09 l 511.824 -381.992 l 530.891 -365.738 l 530.891 -365.738
 516.91 -367.805 513.605 -369.09 c 512.113 -369.676 511.379 -370.266 510.051
 -371.156 c 508.52 -363.672 l h
508.527 -363.676 m S Q
q 1 0 0 1 0 843 cm
512.336 -388.961 m 512.59 -395.672 l 515.645 -394.898 l 521.492 -395.934
 l 523.016 -397.996 l 523.27 -402.637 l 517.68 -404.961 l 513.359 -405.48
 l 513.609 -411.156 l 514.871 -410.207 515.512 -409.543 516.918 -408.832
 c 518.949 -407.801 542.844 -399.543 543.859 -399.031 c 543.355 -396.965
 l 512.336 -388.965 l h
512.336 -388.961 m S Q
q 1 0 0 1 0 843 cm
526.828 -397.477 m 527.336 -401.348 l 535.219 -399.023 l h
526.828 -397.477 m S Q
q 1 0 0 1 0 843 cm
84.133 -482.621 m 82.988 -483.785 82.098 -485.332 82.098 -487.781 c 82.098
 -493.074 83.113 -498.879 84.387 -501.199 c 88.734 -509.148 89.723 -512.684
 93.281 -518.23 c 93.281 -517.973 92.453 -515.172 93.027 -513.324 c 94.551
 -508.426 94.172 -504.812 90.992 -503.266 c 93.535 -502.617 98.109 -500.297
 98.109 -496.297 c 98.109 -493.328 97.094 -492.297 96.332 -489.844 c 96.332
 -494.75 95.559 -497.383 90.992 -497.07 c 87.18 -496.816 85.656 -494.105
 85.656 -489.844 c 85.656 -485.59 88.195 -482.621 92.012 -482.621 c 102.559
 -482.621 106.5 -494.359 106.5 -505.07 c 106.5 -508.293 105.992 -511.52 
105.484 -513.84 c 103.957 -510.746 101.035 -508.68 97.855 -507.133 c 98.746
 -508.938 100.398 -512.035 101.414 -513.582 c 103.195 -516.293 104.465 -526.484
 103.195 -530.355 c 100.652 -530.098 100.145 -529.062 97.605 -529.062 c 
106.754 -536.031 107.008 -554.352 122.77 -554.352 c 129.508 -554.352 134.207
 -548.934 134.973 -541.449 c 135.805 -533.238 132.301 -525.195 124.547 -525.195
 c 119.969 -525.195 117.43 -527.516 116.41 -531.645 c 115.426 -535.648 117.938
 -540.414 122.516 -540.414 c 126.836 -540.414 127.344 -538.227 127.344 -533.453
 c 126.453 -535.387 124.676 -536.031 122.766 -536.031 c 120.223 -536.031
 119.969 -534.094 119.969 -531.898 c 119.969 -529.836 121.496 -529.324 123.527
 -529.324 c 126.961 -529.324 130.266 -532.418 131.156 -536.031 c 131.156
 -541.191 l 130.141 -545.707 127.469 -549.965 122.258 -549.965 c 120.352
 -549.965 119.719 -549.836 118.191 -549.449 c 116.922 -549.059 115.141 -546.609
 114.379 -545.574 c 111.203 -541.188 108.789 -535.641 108.789 -528.289 c
 108.789 -521.453 112.852 -512.035 115.906 -508.938 c 112.219 -508.938 110.184
 -509.84 109.043 -512.293 c 109.547 -506.875 l 111.453 -494.746 103.957 
-480.812 94.551 -479.266 c 96.328 -476.816 98.617 -475.652 98.617 -471.781
 c 98.617 -466.617 95.312 -462.621 91.246 -461.973 c 92.77 -464.039 94.32
 -466.758 94.039 -470.488 c 93.785 -473.844 90.863 -477.973 86.668 -477.973
 c 84.762 -477.973 80.824 -474.617 80.824 -472.297 c 80.824 -463.141 88.277
 -460.582 86.926 -451.656 c 86.418 -448.301 84.637 -444.43 80.316 -444.43
 c 78.918 -444.43 78.156 -444.816 77.266 -445.203 c 80.316 -446.754 84.867
 -448.668 83.875 -453.203 c 82.348 -460.172 76.758 -463.395 76.758 -470.75
 c 76.758 -476.941 79.805 -480.684 84.383 -481.848 c S Q
q 1 0 0 1 0 843 cm
141.195 -586.094 m 168.902 -569.836 l 169.664 -570.355 l 158.227 -597.188
 l 157.719 -600.285 l 153.395 -596.934 l 154.629 -595.535 155.25 -594.668
 156.191 -593.062 c 157.309 -591.16 157.82 -590 158.48 -587.898 c 154.922
 -583.77 l 151.617 -584.805 l 146.535 -589.449 l 146.277 -590.996 l h
141.195 -586.094 m S Q
q 1 0 0 1 0 843 cm
157.973 -581.188 m 160.512 -584.031 l 163.82 -576.805 l h
157.973 -581.188 m S Q
q 1 0 0 1 0 843 cm
163.055 -603.125 m 167.629 -599.77 l 179.832 -580.676 l 179.832 -577.578
 l 184.918 -580.676 l 182.883 -605.445 l 193.309 -589.191 l 193.562 -586.352
 l 197.883 -590.223 l 180.598 -615.508 l 178.816 -613.957 l 180.852 -588.93
 l 171.445 -601.574 l 169.41 -607.25 l 163.059 -603.121 l h
163.055 -603.125 m S Q
q 1 0 0 1 0 843 cm
191.582 -622.102 m 195.652 -618.133 l 205.121 -597.5 l 205.258 -593.832
 l 210.156 -596.781 l 211.539 -621.602 l 219.629 -604.031 l 219.492 -601.184
 l 224.305 -604.406 l 210.648 -631.891 l 208.676 -630.609 l 207.258 -605.535
 l 199.68 -619.387 l 198.441 -625.293 l h
191.582 -622.102 m S Q
q 1 0 0 1 0 843 cm
232.938 -617.031 m 233.969 -613.98 236.59 -612.137 238.797 -612.914 c 241
 -613.691 241.949 -616.789 240.922 -619.84 c 237.359 -630.391 l 236.332 
-633.441 233.711 -635.281 231.504 -634.508 c 229.297 -633.73 228.348 -630.629
 229.375 -627.582 c h
232.938 -617.031 m S Q
q 1 0 0 1 0 843 cm
227.555 -616.637 m 229.617 -610.539 235.168 -606.965 239.961 -608.648 c
 244.75 -610.332 246.965 -616.645 244.902 -622.746 c 241.91 -631.617 l 239.848
 -637.719 234.293 -641.293 229.504 -639.605 c 224.715 -637.922 222.5 -631.609
 224.562 -625.508 c 227.559 -616.637 l h
227.555 -616.637 m S Q
q 1 0 0 1 0 843 cm
253.539 -630.648 m 253.535 -627.379 256.145 -624.727 259.375 -624.727 c
 262.598 -624.727 265.215 -627.387 265.219 -630.66 c 265.219 -633.938 262.609
 -636.586 259.383 -636.582 c 256.156 -636.578 253.543 -633.926 253.539 -630.648
 c h
253.539 -630.648 m S Q
q 1 0 0 1 0 843 cm
274.145 -649.309 m 275.395 -646.152 276.012 -644.324 276.938 -641.055 c
 278.805 -634.469 279.488 -630.594 279.988 -623.766 c 279.734 -621.445 l
 278.211 -617.832 l 283.039 -617.832 l 290.16 -630.477 l 297.02 -618.605
 l 300.07 -619.125 l 298.801 -646.992 l 299.055 -648.539 l 300.07 -651.117
 l 294.48 -650.602 l 296.512 -626.863 l 289.902 -635.895 l 284.055 -626.863
 l 282.281 -640.797 l 281.77 -646.992 l 281.77 -649.828 l 274.145 -649.312
 l h
274.145 -649.309 m S Q
q 1 0 0 1 0 843 cm
322.445 -618.605 m 319.695 -617.75 317.816 -617.75 315.07 -618.605 c 312.59
 -619.379 310.703 -619.91 309.473 -622.219 c 307.699 -625.574 306.609 -627.121
 306.938 -630.477 c 307.699 -640.543 l 307.949 -643.496 308.75 -645.316 
310.75 -647.504 c 312.672 -649.613 314.281 -650.719 317.102 -651.121 c 319.82
 -651.504 321.68 -651.082 323.969 -649.57 c 323.457 -641.832 l 323.129 -644.074
 321.82 -645.582 319.648 -646.219 c 316.543 -647.125 313.094 -644.793 312.781
 -641.574 c 312.273 -629.965 l 312.273 -627.125 313.121 -623.879 316.09 
-622.996 c 318.945 -622.148 321.867 -623.578 322.953 -626.352 c 322.445 
-618.609 l h
322.445 -618.605 m S Q
q 1 0 0 1 0 843 cm
345.695 -615.457 m 342.887 -614.852 341.008 -615.02 338.352 -616.105 c 
335.949 -617.094 334.113 -617.793 333.09 -620.203 c 331.605 -623.699 330.652
 -625.336 331.27 -628.652 c 332.891 -638.609 l 333.395 -641.527 334.344 
-643.273 336.527 -645.277 c 338.625 -647.207 340.324 -648.168 343.164 -648.312
 c 345.906 -648.461 347.723 -647.875 349.871 -646.164 c 348.879 -638.473
 l 346.773 -640.508 347.461 -642.414 345.281 -643.203 c 342.242 -644.305
 338.715 -642.348 338.043 -639.188 c 336.539 -627.664 l 336.297 -624.832
 336.855 -621.523 339.738 -620.387 c 342.508 -619.297 345.539 -620.457 346.863
 -623.121 c 345.695 -615.453 l h
345.695 -615.457 m S Q
q 1 0 0 1 0 843 cm
353.203 -613.703 m 359.555 -612.152 l 364.895 -637.188 l 366.422 -638.734
 l 368.82 -638.242 370.184 -637.539 372.012 -635.895 c 373.555 -634.508 
374.312 -633.457 375.062 -631.508 c 376.336 -638.219 l 376.336 -638.219 
373.539 -640.539 368.707 -641.828 c 365.402 -642.711 360.32 -644.41 360.32
 -644.41 c 360.133 -640.977 360.004 -639.039 359.555 -635.637 c 358.539 
-627.867 357.605 -623.488 355.234 -616.023 c 353.199 -613.703 l h
353.203 -613.703 m S Q
q 1 0 0 1 0 843 cm
372.523 -608.027 m 377.605 -605.703 l 385.488 -613.703 l 386.41 -611.418
 386.707 -609.977 386.758 -607.512 c 386.785 -606.199 386.73 -605.449 386.504
 -604.156 c 385.488 -602.094 l 390.57 -601.059 l 389.301 -616.539 l 402.012
 -629.699 l 396.926 -632.023 l 389.043 -624.539 l 387.914 -627.059 387.605
 -628.75 387.773 -631.508 c 387.867 -633.043 388.039 -633.918 388.539 -635.375
 c 383.707 -637.438 l 385.234 -621.188 l h
372.523 -608.027 m S Q
q 1 0 0 1 0 843 cm
396.105 -597.57 m 400.82 -594.555 l 409.723 -601.359 l 410.328 -598.969
 410.422 -597.5 410.133 -595.055 c 409.98 -593.75 409.82 -593.016 409.422
 -591.766 c 408.129 -589.867 l 413.023 -588.125 l 413.887 -603.637 l 428.277
 -614.871 l 423.562 -617.891 l 414.73 -611.594 l 413.957 -614.246 413.883
 -615.961 414.43 -618.672 c 414.734 -620.176 415.023 -621.023 415.715 -622.395
 c 411.215 -625.121 l 410.496 -608.805 l h
396.105 -597.57 m S Q
q 1 0 0 1 0 843 cm
417.008 -585.84 m 422.09 -582.484 l 424.676 -587.766 426.305 -590.68 429.465
 -595.645 c 432.656 -600.664 434.625 -603.402 438.359 -608.031 c 433.785
 -611.902 l 431.32 -606.707 429.746 -603.848 426.668 -599 c 423.258 -593.617
 421.113 -590.703 417.008 -585.84 c h
417.008 -585.84 m S Q
q 1 0 0 1 0 843 cm
429.625 -577.746 m 434.336 -573.867 l 437.449 -578.852 439.371 -581.574
 443.023 -586.172 c 446.711 -590.824 448.953 -593.34 453.145 -597.551 c 
448.996 -601.883 l 446.012 -596.98 444.145 -594.309 440.586 -589.809 c 436.641
 -584.824 434.211 -582.148 429.625 -577.746 c h
429.625 -577.746 m S Q
q 1 0 0 1 0 843 cm
65.184 -406.504 m 65.949 -405.211 l 96.199 -397.473 l 96.453 -396.441 l
 67.473 -384.316 l 65.949 -383.023 l 66.203 -389.992 l 68.492 -388.441 l
 86.539 -396.188 l 69.254 -400.055 l 64.934 -400.312 l 65.188 -406.504 l
 h
65.184 -406.504 m S Q
q 1 0 0 1 0 843 cm
66.203 -379.41 m 68.746 -378.379 l 68.746 -378.379 77.48 -379.531 82.984
 -380.703 c 88.09 -381.785 95.949 -384.055 95.949 -384.055 c 96.961 -384.828
 l 98.488 -377.09 l 96.199 -378.125 l 92.918 -378.035 91.059 -377.863 87.812
 -377.348 c 83.676 -376.688 81.355 -376.113 77.387 -374.766 c 100.27 -366.512
 l 101.031 -363.93 l 83.746 -360.316 l 71.539 -357.48 l 70.016 -362.895 
l 72.387 -362.672 73.75 -362.672 76.117 -362.895 c 79.566 -363.227 81.531
 -363.695 84.762 -364.961 c 92.133 -365.992 l 67.73 -373.734 l h
66.203 -379.41 m S Q
q 1 0 0 1 0 843 cm
72.559 -351.285 m 74.086 -344.32 l 79.969 -346.23 83.336 -347.199 89.336
 -348.707 c 94.848 -350.09 97.984 -350.773 103.57 -351.805 c 102.047 -357.223
 l 99.504 -356.191 l 95.691 -354.383 80.691 -351.289 77.645 -350.516 c 75.695
 -350.02 74.512 -350.84 72.559 -351.289 c h
72.559 -351.285 m S Q
q 1 0 0 1 0 843 cm
75.609 -338.645 m 107.895 -339.156 l 85.012 -321.355 l 82.98 -318.516 l
 80.949 -323.676 l 83.996 -324.191 l 98.742 -335.805 l 93.195 -336.156 90.008
 -336.039 84.504 -335.285 c 82.711 -335.047 81.703 -334.871 79.93 -334.516
 c 77.387 -333.484 l h
75.609 -338.645 m S Q
q 1 0 0 1 0 843 cm
85.777 -313.613 m 93.66 -297.359 l 97.723 -298.906 l 95.691 -299.938 l 
91.625 -307.164 l 92.129 -308.715 l 93.422 -309.664 94.223 -310.129 95.688
 -310.777 c 97.848 -311.734 99.191 -312.09 101.535 -312.324 c 103.824 -308.453
 l 106.367 -310 l 104.328 -314.129 l 104.328 -314.129 106.871 -316.027 108.652
 -316.969 c 110.543 -317.969 113.738 -319.035 113.738 -319.035 c 117.043
 -313.359 l 117.297 -309.23 l 121.617 -311.809 l 113.48 -326.516 l 112.469
 -324.969 l 112.469 -324.969 105.023 -320.422 100.008 -318 c 95.555 -315.848
 88.312 -313.098 88.312 -313.098 c 85.773 -313.617 l h
85.777 -313.613 m S Q
q 1 0 0 1 0 843 cm
97.98 -289.875 m 102.555 -281.621 l 104.32 -279.797 105.879 -279.035 108.402
 -278.777 c 111.062 -278.508 112.719 -279.219 115.012 -280.586 c 117.195
 -281.887 118.32 -283.027 119.586 -285.23 c 119.586 -287.297 l 120.859 -287.078
 121.621 -287.078 122.891 -287.297 c 124.824 -287.621 125.602 -288.766 127.469
 -289.363 c 130.047 -290.184 131.625 -290.422 134.332 -290.395 c 132.488
 -292.387 130.633 -293.773 127.977 -293.23 c 125.438 -292.715 124.422 -290.887
 121.879 -290.906 c 120.453 -290.922 119.613 -291.105 118.316 -291.68 c 
117.047 -293.488 l 121.367 -297.098 l 127.723 -299.68 l 124.672 -304.07 
l 120.125 -300.551 117.426 -298.727 112.469 -295.809 c 108.328 -293.375 
105.914 -292.121 101.539 -290.133 c h
97.98 -289.875 m S Q
q 1 0 0 1 0 843 cm
104.844 -285.75 m 108.656 -289.102 l 113.738 -291.168 l 115.125 -290.586
 116.488 -289.238 116.027 -288.07 c 115.012 -285.488 114.133 -285.004 112.215
 -283.941 c 110.273 -282.863 108.465 -281.68 106.621 -282.91 c 105.535 -283.637
 105.02 -284.453 104.84 -285.75 c h
104.844 -285.75 m S Q
q 1 0 0 1 0 843 cm
122.129 -255.301 m 127.469 -258.652 l 124.418 -259.172 l 120.863 -262.266
 l 120.598 -264.027 120.969 -265.305 122.133 -266.652 c 123.965 -268.777
 126.891 -269.199 129.25 -267.684 c 131.555 -266.383 133.215 -265.992 135.863
 -266.137 c 137.809 -266.238 138.949 -266.547 140.691 -267.426 c 142.707
 -268.805 143.672 -270.211 144.25 -272.59 c 144.898 -275.273 144.531 -277.273
 142.98 -279.555 c 138.914 -283.941 l 137.137 -286.52 l 130.523 -281.621
 l 134.59 -281.621 l 138.914 -279.035 l 139.957 -276.953 139.691 -274.859
 138.148 -273.105 c 136.48 -271.203 134.07 -270.715 131.793 -271.812 c 123.66
 -273.879 l 120.453 -273.867 118.145 -272.527 116.543 -269.75 c 115.039 
-267.129 114.957 -264.719 116.289 -262.008 c 122.133 -255.301 l h
122.129 -255.301 m S Q
q 1 0 0 1 0 843 cm
128.742 -248.078 m 132.809 -243.945 l 133.066 -245.234 l 152.129 -263.816
 l 154.672 -264.59 l 150.352 -269.488 l 146.086 -264.582 143.562 -261.91
 138.91 -257.363 c 135.07 -253.609 132.828 -251.562 128.742 -248.074 c h
128.742 -248.078 m S Q
q 1 0 0 1 0 843 cm
137.383 -239.043 m 151.617 -226.402 l 155.684 -230.789 l 152.887 -231.305
 l 149.836 -232.336 l 149.074 -233.367 l 164.836 -251.945 l 167.121 -253.238
 l 161.273 -258.137 l 160.004 -255.301 l 144.754 -236.98 l 142.973 -238.527
 l 141.449 -241.109 l 140.684 -244.203 l 137.379 -239.043 l h
137.383 -239.043 m S Q
q 1 0 0 1 0 843 cm
191.582 -198.676 m 195.117 -203.941 l 192.121 -203.156 l 190.504 -202.949
 189.316 -203.363 188.18 -204.535 c 186.914 -205.84 186.633 -207.277 187.035
 -209.047 c 187.652 -211.793 190.371 -213.527 193.121 -212.93 c 196.867 
-213.504 202.207 -214.793 203.676 -217.418 c 204.871 -219.555 205.297 -221.184
 204.859 -223.605 c 204.371 -226.309 203.234 -227.977 200.906 -229.441 c
 195.43 -231.77 l 192.77 -233.395 l 188.699 -226.188 l 192.41 -227.867 l
 197.395 -227.293 l 199.176 -225.793 199.77 -223.785 199.074 -221.555 c 
198.324 -219.129 196.328 -217.695 193.789 -217.754 c 185.531 -216.281 l 
182.586 -214.957 181.016 -212.781 180.684 -209.57 c 180.371 -206.57 181.258
 -204.348 183.555 -202.395 c 191.582 -198.68 l h
191.582 -198.676 m S Q
q 1 0 0 1 0 843 cm
173.227 -236.207 m 177.547 -232.594 l 179.074 -233.367 l 184.41 -237.754
 l 184.918 -239.562 l 189.238 -235.691 l 186.52 -234.262 184.816 -233.695
 182.379 -231.82 c 175.004 -226.141 170.723 -224.246 164.074 -218.402 c 
162.297 -218.402 l 161.789 -219.176 l 172.207 -248.852 l 177.547 -244.98
 l 176.547 -244.441 176.02 -244.02 175.262 -243.172 c 173.375 -241.059 172.773
 -239 173.227 -236.207 c h
173.227 -236.207 m S Q
q 1 0 0 1 0 843 cm
171.445 -232.336 m 174.242 -230.27 l 167.633 -225.371 l h
171.445 -232.336 m S Q
q 1 0 0 1 0 843 cm
211.289 -203.266 m 211.285 -200.133 213.785 -197.594 216.871 -197.598 c
 219.957 -197.598 222.461 -200.141 222.461 -203.273 c 222.465 -206.402 219.965
 -208.945 216.879 -208.938 c 213.793 -208.938 211.293 -206.398 211.289 -203.266
 c h
211.289 -203.266 m S Q
q 1 0 0 1 0 843 cm
332.359 -455.273 m 348.375 -427.148 l S Q
q 1 0 0 1 0 843 cm
298.285 -383.824 m 298.285 -383.57 298.512 -383.371 298.789 -383.371 c 
299.07 -383.371 299.297 -383.574 299.297 -383.824 c 299.297 -384.074 299.07
 -384.277 298.789 -384.277 c 298.512 -384.277 298.281 -384.074 298.281 -383.824
 c h
298.285 -383.824 m S Q
q 1 0 0 1 0 843 cm
304.156 -384.211 m 304.156 -383.891 304.324 -383.629 304.535 -383.629 c
 304.75 -383.629 304.922 -383.891 304.922 -384.211 c 304.922 -384.535 304.75
 -384.793 304.535 -384.793 c 304.328 -384.793 304.156 -384.531 304.156 -384.211
 c h
304.156 -384.211 m S Q
q 1 0 0 1 0 843 cm
309.457 -382.992 m 309.457 -382.707 309.598 -382.473 309.773 -382.473 c
 309.945 -382.473 310.09 -382.707 310.09 -382.992 c 310.09 -383.273 309.949
 -383.504 309.773 -383.504 c 309.598 -383.504 309.457 -383.273 309.457 -382.992
 c h
309.457 -382.992 m S Q
q 1 0 0 1 0 843 cm
521.234 -486.754 m 522.383 -487.914 523.27 -489.461 523.27 -491.918 c 523.27
 -497.203 522.254 -503.008 520.984 -505.332 c 516.637 -513.277 515.645 -516.816
 512.086 -522.363 c 512.086 -522.105 512.914 -519.305 512.336 -517.457 c
 510.816 -512.555 511.195 -508.945 514.375 -507.395 c 511.832 -506.75 507.254
 -504.426 507.254 -500.43 c 507.254 -497.461 508.273 -496.43 509.039 -493.98
 c 509.039 -498.879 509.809 -501.512 514.375 -501.203 c 518.188 -500.945
 519.711 -498.234 519.711 -493.98 c 519.711 -489.719 517.172 -486.754 513.359
 -486.754 c 502.809 -486.754 498.867 -498.492 498.867 -509.199 c 498.867
 -512.43 499.375 -515.652 499.883 -517.973 c 501.41 -514.879 504.332 -512.816
 507.508 -511.266 c 506.617 -513.07 504.969 -516.168 503.953 -517.719 c 
502.172 -520.426 500.898 -530.617 502.172 -534.488 c 504.715 -534.234 505.223
 -533.199 507.766 -533.199 c 498.613 -540.164 498.359 -558.484 482.598 -558.484
 c 475.859 -558.484 471.156 -553.066 470.395 -545.582 c 469.559 -537.367
 473.066 -529.328 480.82 -529.328 c 485.395 -529.328 487.938 -531.648 488.949
 -535.777 c 489.938 -539.785 487.426 -544.551 482.852 -544.551 c 478.531
 -544.551 478.023 -542.359 478.023 -537.586 c 478.91 -539.52 480.691 -540.164
 482.594 -540.164 c 485.141 -540.164 485.395 -538.23 485.395 -536.035 c 
485.395 -533.973 483.867 -533.457 481.836 -533.457 c 478.402 -533.457 475.102
 -536.551 474.207 -540.164 c 474.207 -545.328 l 475.227 -549.84 477.895 
-554.098 483.105 -554.098 c 485.012 -554.098 485.648 -553.969 487.176 -553.586
 c 488.445 -553.195 490.223 -550.742 490.984 -549.711 c 494.164 -545.328
 496.578 -539.777 496.578 -532.422 c 496.578 -525.582 492.512 -516.172 489.461
 -513.07 c 493.148 -513.07 495.18 -513.973 496.328 -516.426 c 495.816 -511.008
 l 493.91 -498.879 501.41 -484.945 510.816 -483.402 c 509.039 -480.945 506.75
 -479.785 506.75 -475.914 c 506.75 -470.754 510.055 -466.758 514.121 -466.109
 c 512.598 -468.176 511.043 -470.895 511.324 -474.625 c 511.582 -477.98 
514.504 -482.109 518.699 -482.109 c 520.605 -482.109 524.543 -478.754 524.543
 -476.434 c 524.543 -467.27 517.09 -464.719 518.441 -455.793 c 518.949 -452.438
 520.734 -448.566 525.055 -448.566 c 526.453 -448.566 527.215 -448.953 528.102
 -449.34 c 525.055 -450.887 520.5 -452.805 521.496 -457.336 c 523.02 -464.305
 528.613 -467.527 528.613 -474.887 c 528.613 -481.078 525.562 -484.816 520.984
 -485.977 c S Q
q 1 0 0 1 0 843 cm
410.91 -472.82 m 411.418 -472.82 411.926 -472.82 412.434 -472.82 c 412.816
 -473.207 413.199 -473.594 413.707 -473.852 c 414.215 -472.82 414.473 -472.301
 414.598 -471.273 c 415.105 -471.273 415.359 -471.531 415.867 -471.531 c
 416.121 -473.465 l 417.012 -473.465 l 418.41 -472.688 l 418.793 -474.496
 l 418.41 -475.656 418.793 -476.43 418.793 -477.594 c 418.793 -477.848 418.531
 -478.109 418.41 -478.367 c 415.359 -478.367 l 415.359 -477.594 414.977 
-477.074 414.727 -476.949 c 414.473 -478.109 l 413.961 -478.625 412.945 
-478.367 412.309 -478.367 c 411.039 -478.367 l 411.039 -473.074 l S Q
q 1 0 0 1 0 843 cm
406.078 -512.816 m 406.586 -512.816 407.098 -512.816 407.602 -512.816 c
 407.984 -513.203 408.367 -513.59 408.875 -513.848 c 409.383 -512.816 409.633
 -512.301 409.766 -511.266 c 410.273 -511.266 410.527 -511.527 411.031 -511.527
 c 411.289 -513.461 l 412.18 -513.461 l 413.578 -512.688 l 413.957 -514.492
 l 413.578 -515.652 413.957 -516.43 413.957 -517.59 c 413.957 -517.844 413.703
 -518.105 413.578 -518.359 c 410.527 -518.359 l 410.527 -517.59 410.145 
-517.07 409.891 -516.941 c 409.641 -518.102 l 409.129 -518.621 408.113 -518.359
 407.48 -518.359 c 406.207 -518.359 l 406.207 -513.07 l S Q
q 1 0 0 1 0 843 cm
434.297 -493.074 m 434.805 -494.625 436.457 -494.883 436.457 -496.43 c 
436.457 -498.234 435.062 -500.43 434.805 -502.105 c 434.422 -500.688 434.172
 -499.141 433.535 -498.492 c 433.152 -498.105 432.266 -497.977 432.008 -497.977
 c 430.738 -497.461 430.609 -496.043 430.738 -494.754 c 429.973 -494.105
 l 431.496 -492.945 l 433.023 -494.879 433.277 -496.559 435.562 -497.332
 c S Q
q 1 0 0 1 0 843 cm
434.93 -500.43 m 434.168 -498.879 l S Q
q 1 0 0 1 0 843 cm
433.277 -498.754 m 433.023 -499.527 432.809 -500.098 433.09 -500.816 c 
433.344 -501.465 432.516 -501.203 432.516 -501.336 c S Q
q 1 0 0 1 0 843 cm
428.324 -495.523 m 429.34 -496.43 429.594 -496.168 430.355 -496.043 c S Q
q 1 0 0 1 0 843 cm
428.574 -497.848 m 429.34 -497.336 429.719 -497.461 430.609 -497.848 c S Q
q 1 0 0 1 0 843 cm
435.312 -496.945 m 435.695 -496.816 435.949 -497.016 436.074 -496.758 c
 S Q
q 1 0 0 1 0 843 cm
393.367 -488.758 m 393.875 -490.305 395.527 -490.562 395.527 -492.113 c
 395.527 -493.922 394.133 -496.113 393.875 -497.789 c 393.492 -496.367 393.238
 -494.82 392.605 -494.172 c 392.227 -493.789 391.336 -493.66 391.082 -493.66
 c 389.809 -493.141 389.684 -491.723 389.809 -490.434 c 389.043 -489.789
 l 390.57 -488.629 l 392.098 -490.562 392.352 -492.238 394.637 -493.016 
c S Q
q 1 0 0 1 0 843 cm
394.004 -496.113 m 393.238 -494.562 l S Q
q 1 0 0 1 0 843 cm
392.352 -494.434 m 392.098 -495.207 391.883 -495.781 392.164 -496.496 c
 392.418 -497.145 391.59 -496.887 391.59 -497.016 c S Q
q 1 0 0 1 0 843 cm
387.395 -491.211 m 388.41 -492.113 388.668 -491.855 389.43 -491.727 c S Q
q 1 0 0 1 0 843 cm
387.648 -493.531 m 388.41 -493.016 388.793 -493.141 389.68 -493.531 c S Q
q 1 0 0 1 0 843 cm
394.387 -492.629 m 394.77 -492.5 395.023 -492.699 395.148 -492.441 c S Q
q 1 0 0 1 0 843 cm
286.348 -460.691 m 288.637 -459.145 l S Q
  Q
Q
Q Q
showpage
%%Trailer
end restore
%%EOF
